{
    "_id": "pYjPHCoDHqFL994f",
    "data": {
        "attributes": {
            "ac": {
                "value": 18
            },
            "hardness": 8,
            "hasHealth": true,
            "hp": {
                "details": "",
                "max": 30,
                "temp": 0,
                "value": 30
            },
            "stealth": {
                "details": "<p>(trained)</p>",
                "value": 11
            }
        },
        "creatureType": "",
        "details": {
            "description": "<p>A cave painting of a great cat roars to life and leaps off the wall to attack.</p>",
            "disable": "<p>@Check[type:nature|dc:18|name:Quell the Spirit|traits:hazard,haunt] (trained) or @Check[type:religion|dc:18|name:Quell the Spirit|traits:hazard,haunt] (trained) to quell the spirit</p>",
            "isComplex": false,
            "level": {
                "value": 2
            },
            "reset": "<p>If the cave painting isn't destroyed, the haunt resets after 1 day.</p>",
            "routine": ""
        },
        "saves": {
            "fortitude": {
                "saveDetail": "",
                "value": 11
            },
            "reflex": {
                "saveDetail": "",
                "value": 5
            },
            "will": {
                "saveDetail": "",
                "value": 0
            }
        },
        "source": {
            "value": "Pathfinder #175: Broken Tusk Moon"
        },
        "statusEffects": [],
        "traits": {
            "ci": [],
            "di": {
                "custom": "",
                "selected": {},
                "value": [
                    "critical-hits",
                    "object-immunities",
                    "precision"
                ]
            },
            "dr": [],
            "dv": [
                {
                    "type": "acid",
                    "value": 5
                }
            ],
            "rarity": "common",
            "size": {
                "value": "med"
            },
            "traits": {
                "custom": "",
                "value": [
                    "haunt"
                ]
            }
        }
    },
    "img": "systems/pf2e/icons/default-icons/hazard.svg",
    "items": [
        {
            "_id": "nYZ0bBUL99y0pOOt",
            "data": {
                "actionCategory": {
                    "value": "offensive"
                },
                "actionType": {
                    "value": "reaction"
                },
                "actions": {
                    "value": null
                },
                "description": {
                    "value": "<p><strong>Trigger</strong> A living creature approaches within 5 feet of the cave painting</p>\n<p><strong>Effect</strong> The haunt deals [[/r {4d8}[slashing]]]{4d8 slashing damage} with semisolid claws (@Check[type:will|dc:18|basic:true]). On a failed save, the target is also @Compendium[pf2e.conditionitems.Frightened]{Frightened 1} and @Compendium[pf2e.conditionitems.Fleeing]{Fleeing} for 1 round (or @Compendium[pf2e.conditionitems.Frightened]{Frightened 2} and fleeing for 1 minute on a critical failure).</p>"
                },
                "requirements": {
                    "value": ""
                },
                "rules": [],
                "slug": null,
                "source": {
                    "value": ""
                },
                "traits": {
                    "custom": "",
                    "rarity": "common",
                    "value": []
                },
                "trigger": {
                    "value": ""
                }
            },
            "img": "systems/pf2e/icons/actions/Reaction.webp",
            "name": "Tiger Slash",
            "sort": 0,
            "type": "action"
        }
    ],
    "name": "Pouncing Tiger Haunt",
    "token": {
        "disposition": 0,
        "height": 1,
        "img": "systems/pf2e/icons/default-icons/hazard.svg",
        "name": "Pouncing Tiger Haunt",
        "width": 1
    },
    "type": "hazard"
}
