{
    "_id": "A93flWUsot3FmC7t",
    "data": {
        "attributes": {
            "ac": {
                "value": 27
            },
            "hardness": 0,
            "hasHealth": true,
            "hp": {
                "details": "",
                "max": 70,
                "temp": 0,
                "tempmax": 0,
                "value": 70
            },
            "stealth": {
                "details": "<p>(trained)</p>",
                "value": 18
            }
        },
        "creatureType": "",
        "details": {
            "description": "<p>Poisonous mold spores assault nearby creatures.</p>",
            "disable": "<p>@Check[type:survival|dc:26|name:Remove the Mold] (expert) to remove the mold without triggering the spores</p>",
            "isComplex": false,
            "level": {
                "value": 8
            },
            "reset": "",
            "routine": ""
        },
        "saves": {
            "fortitude": {
                "saveDetail": "",
                "value": 17
            },
            "reflex": {
                "saveDetail": "",
                "value": 13
            },
            "will": {
                "saveDetail": "",
                "value": 0
            }
        },
        "source": {
            "value": "Pathfinder Core Rulebook"
        },
        "statusEffects": [],
        "traits": {
            "ci": [],
            "di": {
                "custom": "",
                "selected": {},
                "value": [
                    "critical-hits",
                    "object-immunities",
                    "precision"
                ]
            },
            "dr": [],
            "dv": [],
            "rarity": "common",
            "size": {
                "value": "med"
            },
            "traits": {
                "custom": "",
                "value": [
                    "environmental",
                    "fungus"
                ]
            }
        }
    },
    "img": "systems/pf2e/icons/default-icons/hazard.svg",
    "items": [
        {
            "_id": "eTpo3PPNbe4sFYhD",
            "data": {
                "actionCategory": {
                    "value": ""
                },
                "actionType": {
                    "value": "reaction"
                },
                "actions": {
                    "value": null
                },
                "description": {
                    "value": "<p><strong>Trigger</strong> A creature moves into the mold's space or damages the mold. The mold can't use this reaction if it's in direct sunlight or if the damage was fire damage.</p>\n<p><strong>Effect</strong> The triggering creature and all creatures within @Template[type:emanation|distance:10]{10 feet} are exposed to yellow mold spores.</p>"
                },
                "requirements": {
                    "value": ""
                },
                "rules": [],
                "slug": null,
                "source": {
                    "value": ""
                },
                "traits": {
                    "custom": "",
                    "rarity": "common",
                    "value": []
                },
                "trigger": {
                    "value": ""
                },
                "weapon": {
                    "value": ""
                }
            },
            "img": "systems/pf2e/icons/actions/Reaction.webp",
            "name": "Spore Explosion",
            "sort": 100000,
            "type": "action"
        },
        {
            "_id": "tyAeSBnHmP9Nuh2k",
            "data": {
                "actionCategory": {
                    "value": ""
                },
                "actionType": {
                    "value": "passive"
                },
                "actions": {
                    "value": null
                },
                "description": {
                    "value": "<p>Any drained condition from the spores persists after the poison's duration ends.</p>\n<p><strong>Saving Throw</strong> @Check[type:fortitude|dc:26]</p>\n<hr />\n<p><strong>Maximum Duration</strong> 6 rounds</p>\n<p><strong>Stage 1</strong> [[/r {1d8}[poison]]]{1d8 poison damage} and @Compendium[pf2e.conditionitems.Drained]{Drained 1} (1 round)</p>\n<p><strong>Stage 2</strong> [[/r {2d8}[poison]]]{2d8 poison damage} and @Compendium[pf2e.conditionitems.Drained]{Drained 2} (1 round)</p>\n<p><strong>Stage 3</strong> [[/r {3d8}[poison]]]{3d8 poison damage} and @Compendium[pf2e.conditionitems.Drained]{Drained 3} (1 round)</p>"
                },
                "requirements": {
                    "value": ""
                },
                "rules": [],
                "slug": null,
                "source": {
                    "value": ""
                },
                "traits": {
                    "custom": "",
                    "rarity": "common",
                    "value": [
                        "inhaled",
                        "poison"
                    ]
                },
                "trigger": {
                    "value": ""
                },
                "weapon": {
                    "value": ""
                }
            },
            "img": "systems/pf2e/icons/actions/Passive.webp",
            "name": "Yellow Mold Spores",
            "sort": 200000,
            "type": "action"
        }
    ],
    "name": "Yellow Mold",
    "token": {
        "disposition": 0,
        "height": 1,
        "img": "systems/pf2e/icons/default-icons/hazard.svg",
        "name": "Yellow Mold",
        "width": 1
    },
    "type": "hazard"
}
