{
    "_id": "uKoay1d62vRae3z1",
    "content": "<h1>Snarecrafter</h1>\n<p>You're able to take ordinary materials and use them to create deadly snares, special traps that you can rig up quickly when the situation demands. While traps might grant you less brute force to apply in a fair fight than weapons would, you rarely allow your fights to be fair. Instead, when a battle takes place at a location of your choice, you have a major advantage thanks to your well-placed snares. Once your foes come to realize that you may have trapped any location on the battlefield, their fear of walking into another trap can help you corral them toward the waiting blades of your allies, or even make them too paranoid to move at all, locking them in place.</p>\n<p>Additional Feats: 8th @Compendium[pf2e.feats-srd.Quick Snares]{Quick Snares}; 10th @Compendium[pf2e.feats-srd.Powerful Snares]{Powerful Snares}; 14th @Compendium[pf2e.feats-srd.Lightning Snares]{Lightning Snares}</p>\n<h2>@Compendium[pf2e.feats-srd.Snarecrafter Dedication]{Snarecrafter Dedication} Feat 2</h2>\n<p><strong>Prerequisites</strong> trained in Crafting, Snare Crafting</p>\n<hr />\n<p>You've learned to create a limited number of snares at no cost. Each day during your daily preparations, you can prepare four snares from your formula book for quick deployment; if they normally take 1 minute to Craft, you can Craft them with 3 Interact actions. The number of snares increases to six if you're a master in Crafting and eight if you're legendary. Snares prepared in this way don't cost you any resources to Craft.</p>\n<p><strong>Special</strong> The feat counts as @Compendium[pf2e.feats-srd.Snare Specialist]{Snare Specialist} for the purpose of feat prerequisites. If you also have the Snare Specialist ranger feat, the <strong>quick snares</strong> from both feats are cumulative. You can't select another dedication feat until you have gained two other feats from the Snarecrafter archetype.</p>\n<h2>@Compendium[pf2e.feats-srd.Surprise Snare]{Surprise Snare} Feat 4</h2>\n<p><strong>Prerequisites</strong> Snarecrafter Dedication</p>\n<hr />\n<p>You install one of your snares prepared for quick deployment in a space that's occupied by an opponent. It must be a snare that normally takes 1 minute or less to Craft. The snare automatically triggers, but it takes a -2 circumstance penalty to any applicable save DC, as well as any attack rolls or other checks the snare attempts.</p>\n<h2>@Compendium[pf2e.feats-srd.Remote Trigger]{Remote Trigger} Feat 6</h2>\n<p><strong>Prerequisites</strong> Snarecrafter Dedication</p>\n<hr />\n<p>You've learned how to trigger snares from afar, creating ranged hazards to assail your opponents and allowing you to disarm enemies' snares harmlessly. You can Strike a snare to trigger it prematurely. If you crafted the snare, you automatically hit. If someone else crafted it, attempt a ranged Strike against the Crafting DC, triggering the snare only if you hit.</p>\n<h2>@Compendium[pf2e.feats-srd.Giant Snare]{Giant Snare} Feat 10</h2>\n<p><strong>Prerequisites</strong> Snarecrafter Dedication</p>\n<hr />\n<p>You can create bigger snares for quick deployment, making it more likely for a creature to walk into your snares. When you prepare snares for quick deployment, you can prepare some of them as giant snares. A giant snare takes up a 10-foot-by-10-foot area but costs two of your quick deployment snares. A giant snare can trigger from a creature entering any portion of its area, and all its effects apply over the full area.</p>\n<h2>@Compendium[pf2e.feats-srd.Plentiful Snares]{Plentiful Snares} Feat 12</h2>\n<p><strong>Prerequisites</strong> Snarecrafter Dedication</p>\n<hr />\n<p>You can prepare incredible numbers of snares each day out of simple ingredients. Double the number of prepared snares granted by Snarecrafter Dedication.</p>",
    "flags": {},
    "name": "Snarecrafter",
    "permission": {
        "default": 0
    }
}
