{
    "_id": "wS2SN0dnQMybLzSA",
    "data": {
        "abilities": {
            "cha": {
                "mod": -4
            },
            "con": {
                "mod": 4
            },
            "dex": {
                "mod": 5
            },
            "int": {
                "mod": -5
            },
            "str": {
                "mod": -2
            },
            "wis": {
                "mod": 1
            }
        },
        "attributes": {
            "ac": {
                "details": "",
                "value": 18
            },
            "allSaves": {
                "value": ""
            },
            "hp": {
                "details": "",
                "max": 55,
                "temp": 0,
                "value": 55
            },
            "initiative": {
                "ability": "perception"
            },
            "perception": {
                "value": 13
            },
            "speed": {
                "otherSpeeds": [],
                "value": "30"
            }
        },
        "details": {
            "alignment": {
                "value": "N"
            },
            "blurb": "",
            "creatureType": "Animal",
            "level": {
                "value": 5
            },
            "privateNotes": "",
            "publicNotes": "<p>Flea swarms roil across city streets and rural hinterlands in a hissing, scraping scrabble, draining blood from any creatures unfortunate enough to cross their path.</p>\n<hr />\n<p>Fleas are little more than a nuisance in most circumstances, but can be lethal when they grow to monstrous proportions or gather in enormous swarms.</p>",
            "source": {
                "value": "Pathfinder #151: The Show Must Go On"
            }
        },
        "resources": {},
        "saves": {
            "fortitude": {
                "saveDetail": "",
                "value": 15
            },
            "reflex": {
                "saveDetail": "",
                "value": 16
            },
            "will": {
                "saveDetail": "",
                "value": 6
            }
        },
        "traits": {
            "ci": [],
            "di": {
                "custom": "",
                "value": [
                    "disease",
                    "precision",
                    "swarm-mind"
                ]
            },
            "dr": [
                {
                    "exceptions": "except bludgeoning",
                    "type": "physical",
                    "value": 8
                }
            ],
            "dv": [
                {
                    "type": "area-damage",
                    "value": 4
                },
                {
                    "type": "splash-damage",
                    "value": 4
                }
            ],
            "languages": {
                "custom": "",
                "selected": [],
                "value": []
            },
            "rarity": "common",
            "senses": {
                "value": "low-light vision, scent (imprecise) 30 feet"
            },
            "size": {
                "value": "lg"
            },
            "traits": {
                "custom": "",
                "value": [
                    "animal",
                    "swarm"
                ]
            }
        }
    },
    "img": "systems/pf2e/icons/default-icons/npc.svg",
    "items": [
        {
            "_id": "FZSw4o3rZCgCEFcW",
            "data": {
                "actionCategory": {
                    "value": "interaction"
                },
                "actionType": {
                    "value": "passive"
                },
                "actions": {
                    "value": null
                },
                "description": {
                    "value": "<p>@Localize[PF2E.NPC.Abilities.Glossary.LowLightVision]</p>"
                },
                "requirements": {
                    "value": ""
                },
                "rules": [],
                "slug": "low-light-vision",
                "source": {
                    "value": ""
                },
                "traits": {
                    "custom": "",
                    "rarity": "common",
                    "value": []
                },
                "trigger": {
                    "value": ""
                },
                "weapon": {
                    "value": ""
                }
            },
            "flags": {
                "core": {
                    "sourceId": "Compendium.pf2e.bestiary-ability-glossary-srd.fFu2sZz4KB01fVRc"
                }
            },
            "img": "systems/pf2e/icons/actions/Passive.webp",
            "name": "Low-Light Vision",
            "sort": 100000,
            "type": "action"
        },
        {
            "_id": "xyO3M6BDrtYA6yRv",
            "data": {
                "actionCategory": {
                    "value": "interaction"
                },
                "actionType": {
                    "value": "passive"
                },
                "actions": {
                    "value": null
                },
                "description": {
                    "value": "<p>@Localize[PF2E.NPC.Abilities.Glossary.Scent]</p>"
                },
                "requirements": {
                    "value": ""
                },
                "rules": [],
                "slug": "scent",
                "source": {
                    "value": ""
                },
                "traits": {
                    "custom": "",
                    "rarity": "common",
                    "value": []
                },
                "trigger": {
                    "value": ""
                },
                "weapon": {
                    "value": ""
                }
            },
            "flags": {
                "core": {
                    "sourceId": "Compendium.pf2e.bestiary-ability-glossary-srd.rqfnQ5VHT5hxm25r"
                }
            },
            "img": "systems/pf2e/icons/actions/Passive.webp",
            "name": "Scent (Imprecise) 30 feet",
            "sort": 200000,
            "type": "action"
        },
        {
            "_id": "coep2DirH6k49uz3",
            "data": {
                "actionCategory": {
                    "value": "offensive"
                },
                "actionType": {
                    "value": "passive"
                },
                "actions": {
                    "value": null
                },
                "description": {
                    "value": "<p>Drain from flea fever can't be reduced or recovered from naturally until the disease is cured.</p>\n<p><strong>Saving Throw</strong> @Check[type:fortitude|dc:19]</p>\n<p><strong>Stage 1</strong> @Compendium[pf2e.conditionitems.Drained]{Drained 1} ([[/r 1d4]]{1d4 hours})</p>\n<p><strong>Stage 2</strong> drained 1 and @Compendium[pf2e.conditionitems.Sickened]{Sickened 1} (1 day)</p>\n<p><strong>Stage 3</strong> @Compendium[pf2e.conditionitems.Drained]{Drained 2} and sickened 1 (1 day)</p>\n<p><strong>Stage 4</strong> @Compendium[pf2e.conditionitems.Drained]{Drained 3} and sickened 1 (1 day)</p>\n<p><strong>Stage 5</strong> dead</p>"
                },
                "requirements": {
                    "value": ""
                },
                "rules": [],
                "slug": null,
                "source": {
                    "value": ""
                },
                "traits": {
                    "custom": "",
                    "rarity": "common",
                    "value": [
                        "disease"
                    ]
                },
                "trigger": {
                    "value": ""
                },
                "weapon": {
                    "value": ""
                }
            },
            "img": "systems/pf2e/icons/actions/Passive.webp",
            "name": "Flea Fever",
            "sort": 300000,
            "type": "action"
        },
        {
            "_id": "O3GuY1OWhHhmq9FW",
            "data": {
                "actionCategory": {
                    "value": "offensive"
                },
                "actionType": {
                    "value": "action"
                },
                "actions": {
                    "value": 1
                },
                "description": {
                    "value": "<p><strong>Requirements</strong> The flea swarm's last action was Swarming Bites, and it dealt damage to at least one enemy</p>\n<p><strong>Effect</strong> The flea swarm drinks the creatures' blood. Each victim becomes @Compendium[pf2e.conditionitems.Drained]{Drained 1} and the swarm regains [[/r 3]]{3 HP} for each victim drained.</p>"
                },
                "requirements": {
                    "value": ""
                },
                "rules": [],
                "slug": null,
                "source": {
                    "value": ""
                },
                "traits": {
                    "custom": "",
                    "rarity": "common",
                    "value": []
                },
                "trigger": {
                    "value": ""
                },
                "weapon": {
                    "value": ""
                }
            },
            "img": "systems/pf2e/icons/actions/OneAction.webp",
            "name": "Suck Blood",
            "sort": 400000,
            "type": "action"
        },
        {
            "_id": "ZmpXD5Zs0PQBXPU3",
            "data": {
                "actionCategory": {
                    "value": "offensive"
                },
                "actionType": {
                    "value": "action"
                },
                "actions": {
                    "value": 1
                },
                "description": {
                    "value": "<p>Each enemy in the swarm's space takes [[/r {2d4+7}[piercing]]]{2d4+7 piercing damage} and must attempt a @Check[type:reflex|dc:22|basic:true] save. A creature that fails its save is exposed to flea fever.</p>"
                },
                "requirements": {
                    "value": ""
                },
                "rules": [],
                "slug": null,
                "source": {
                    "value": ""
                },
                "traits": {
                    "custom": "",
                    "rarity": "common",
                    "value": []
                },
                "trigger": {
                    "value": ""
                },
                "weapon": {
                    "value": ""
                }
            },
            "img": "systems/pf2e/icons/actions/OneAction.webp",
            "name": "Swarming Bites",
            "sort": 500000,
            "type": "action"
        },
        {
            "_id": "1yHBrXyc4vDEdiRw",
            "data": {
                "description": {
                    "value": ""
                },
                "mod": {
                    "value": 14
                },
                "proficient": {
                    "value": 0
                },
                "rules": [],
                "slug": null,
                "source": {
                    "value": ""
                },
                "traits": {
                    "custom": "",
                    "rarity": "common",
                    "value": []
                }
            },
            "img": "systems/pf2e/icons/default-icons/lore.svg",
            "name": "Acrobatics",
            "sort": 600000,
            "type": "lore"
        },
        {
            "_id": "JlpJ89IL7ZyHUWgp",
            "data": {
                "description": {
                    "value": ""
                },
                "mod": {
                    "value": 9
                },
                "proficient": {
                    "value": 0
                },
                "rules": [
                    {
                        "key": "FlatModifier",
                        "label": "To Jump",
                        "predicate": {
                            "all": [
                                "trait:action:jump"
                            ]
                        },
                        "selector": "athletics",
                        "value": 4
                    }
                ],
                "slug": null,
                "source": {
                    "value": ""
                },
                "traits": {
                    "custom": "",
                    "rarity": "common",
                    "value": []
                },
                "variants": {
                    "0": {
                        "label": "+13 to Jump",
                        "options": "trait:action:jump"
                    }
                }
            },
            "img": "systems/pf2e/icons/default-icons/lore.svg",
            "name": "Athletics",
            "sort": 700000,
            "type": "lore"
        }
    ],
    "name": "Flea Swarm",
    "token": {
        "disposition": -1,
        "height": 2,
        "img": "systems/pf2e/icons/default-icons/npc.svg",
        "name": "Flea Swarm",
        "width": 2
    },
    "type": "npc"
}
