{
    "_id": "f42l4cQyhNOLs19j",
    "data": {
        "attributes": {
            "ac": {
                "value": 26
            },
            "hardness": 0,
            "hasHealth": true,
            "hp": {
                "details": "",
                "max": 54,
                "temp": 0,
                "tempmax": 0,
                "value": 54
            },
            "stealth": {
                "details": "<p>(expert)</p>",
                "value": 15
            }
        },
        "creatureType": "",
        "details": {
            "description": "<p>A trip wire halfway up the stairs releases half a dozen spherical thunderstones that bounce down the stairs and explode.</p>",
            "disable": "<p>@Check[type:thievery|dc:27|name:Safely Cut the Trip Wire|traits:mechanical,hazard,trap] (expert) to safely cut the trip wire</p>",
            "isComplex": false,
            "level": {
                "value": 7
            },
            "reset": "",
            "routine": ""
        },
        "saves": {
            "fortitude": {
                "saveDetail": "",
                "value": 15
            },
            "reflex": {
                "saveDetail": "",
                "value": 13
            },
            "will": {
                "saveDetail": "",
                "value": 0
            }
        },
        "source": {
            "value": "Pathfinder #152: Legacy of the Lost God"
        },
        "statusEffects": [],
        "traits": {
            "ci": [],
            "di": {
                "custom": "",
                "selected": {},
                "value": [
                    "critical-hits",
                    "object-immunities",
                    "precision"
                ]
            },
            "dr": [],
            "dv": [],
            "rarity": "uncommon",
            "size": {
                "value": "med"
            },
            "traits": {
                "custom": "",
                "value": [
                    "mechanical",
                    "trap"
                ]
            }
        }
    },
    "img": "systems/pf2e/icons/default-icons/hazard.svg",
    "items": [
        {
            "_id": "JTK8CW0TwOok1X9Z",
            "data": {
                "actionCategory": {
                    "value": "offensive"
                },
                "actionType": {
                    "value": "reaction"
                },
                "actions": {
                    "value": null
                },
                "description": {
                    "value": "<p><strong>Trigger</strong> The trip wire is disturbed</p>\n<p><strong>Effect</strong> Several thunderstones bounce down the stairs and explode. Each creature within 10 feet of the lower half of the stairs takes [[/r {6d10}[sonic]]]{6d10 sonic damage} (@Check[type:fortitude|dc:24|basic:true|traits:hazard,trap,mechanical] save). Creatures that fail this save are additionally @Compendium[pf2e.conditionitems.Deafened]{Deafened} for 1 minute; creatures that critically fail this save are instead deafened for 1 hour.</p>"
                },
                "requirements": {
                    "value": ""
                },
                "rules": [],
                "slug": null,
                "source": {
                    "value": ""
                },
                "traits": {
                    "custom": "",
                    "rarity": "common",
                    "value": []
                },
                "trigger": {
                    "value": ""
                },
                "weapon": {
                    "value": ""
                }
            },
            "img": "systems/pf2e/icons/actions/Reaction.webp",
            "name": "Thunderstone Explosion",
            "sort": 100000,
            "type": "action"
        }
    ],
    "name": "Thunderstone Cascade Trap",
    "token": {
        "disposition": 0,
        "height": 1,
        "img": "systems/pf2e/icons/default-icons/hazard.svg",
        "name": "Thunderstone Cascade Trap",
        "width": 1
    },
    "type": "hazard"
}
