{
    "_id": "upnKpiEflAhhFLNQ",
    "content": "<p>When a young relative disappeared in a busy market, this character helped you question merchants and shoppers and find the child before they came to any harm.</p>\n<p>Add the @Compendium[pf2e.feats-srd.Hobnobber]{Hobnobber} skill feat to your background options.</p>",
    "flags": {},
    "name": "Missing Child",
    "permission": {
        "default": 0
    }
}
