{
    "_id": "9IwSktj0Xj7A2Ruh",
    "data": {
        "baseItem": null,
        "containerId": null,
        "description": {
            "value": "<p>These gem-studded golden anklets give you a +3 item bonus to Acrobatics checks. When you invest the anklets, you either increase your Dexterity score by 2 or increase it to 18, whichever would give you a higher score.</p>\n<hr />\n<p><strong>Activate</strong> <span class=\"pf2-icon\">A</span> Interact</p>\n<p><strong>Frequency</strong> once per day</p>\n<p><strong>Effect</strong> You click the anklets together, gaining a +20-foot status bonus to all your Speeds and the effects of <em>@Compendium[pf2e.spells-srd.Water Walk]{Water Walk}</em> for the next 10 minutes.</p>\n<p>@Compendium[pf2e.equipment-effects.Effect: Anklets of Alacrity]{Effect: Anklets of Alacrity}</p>"
        },
        "equippedBulk": {
            "value": ""
        },
        "hardness": 0,
        "hp": {
            "brokenThreshold": 0,
            "max": 0,
            "value": 0
        },
        "level": {
            "value": 17
        },
        "negateBulk": {
            "value": "0"
        },
        "preciousMaterial": {
            "value": ""
        },
        "preciousMaterialGrade": {
            "value": ""
        },
        "price": {
            "value": {
                "gp": 15000
            }
        },
        "quantity": 1,
        "rules": [
            {
                "key": "FlatModifier",
                "label": "Anklets of Alacrity",
                "selector": "acrobatics",
                "type": "item",
                "value": 3
            },
            {
                "key": "ActiveEffectLike",
                "mode": "add",
                "path": "data.abilities.dex.value",
                "value": 2
            },
            {
                "key": "ActiveEffectLike",
                "mode": "upgrade",
                "path": "data.abilities.dex.value",
                "value": 18
            }
        ],
        "size": "med",
        "source": {
            "value": "Pathfinder Core Rulebook"
        },
        "stackGroup": null,
        "traits": {
            "custom": "",
            "rarity": "common",
            "value": [
                "apex",
                "invested",
                "magical",
                "transmutation"
            ]
        },
        "usage": {
            "value": "wornanklets"
        },
        "weight": {
            "value": "-"
        }
    },
    "img": "systems/pf2e/icons/equipment/worn-items/apex-items/anklets-of-alacrity.webp",
    "name": "Anklets of Alacrity",
    "type": "equipment"
}
