{
    "_id": "MBF9bZCwkJp2RZoN",
    "data": {
        "baseItem": null,
        "containerId": null,
        "description": {
            "value": "<p>This mid-sized, silver cauldron is a boon within areas where access to fresh food is limited, for it can be commanded to fill itself with hearty (and delicious) vegetable stew. It can also be put to a much greater use in the pursuit of crafting certain items. When used to Craft alchemical items, potions, or oils, a bountiful cauldron grants a +2 item bonus to the Crafting check.</p>\n<p><strong>Activate</strong> <span class=\"pf2-icon\">T</span> command, Interact</p>\n<p><strong>Frequency</strong> once per day</p>\n<p><strong>Effect</strong> You stir the cauldron, and it casts a 4th-level <em>@Compendium[pf2e.spells-srd.Create Food]{Create Food}</em> spell, filling itself with enough delicious vegetable stew to feed 12 Medium creatures.</p>"
        },
        "equippedBulk": {
            "value": ""
        },
        "hardness": 0,
        "hp": {
            "brokenThreshold": 0,
            "max": 0,
            "value": 0
        },
        "level": {
            "value": 9
        },
        "negateBulk": {
            "value": "0"
        },
        "preciousMaterial": {
            "value": ""
        },
        "preciousMaterialGrade": {
            "value": ""
        },
        "price": {
            "value": {
                "gp": 680
            }
        },
        "quantity": 1,
        "rules": [],
        "size": "med",
        "source": {
            "value": "Pathfinder #147: Tomorrow Must Burn"
        },
        "stackGroup": null,
        "traits": {
            "custom": "",
            "rarity": "uncommon",
            "value": [
                "conjuration",
                "magical"
            ]
        },
        "usage": {
            "value": "held-in-one-hand"
        },
        "weight": {
            "value": "2"
        }
    },
    "img": "systems/pf2e/icons/equipment/adventuring-gear/bountiful-cauldron.webp",
    "name": "Bountiful Cauldron",
    "type": "equipment"
}
