{
    "_id": "eurAnvH8bK0ZctOR",
    "data": {
        "baseItem": null,
        "containerId": null,
        "description": {
            "value": "<p>These bracers are made from plates of durable mithral and gleam like the summer sun.</p>\n<p><strong>Activate</strong> <span class=\"pf2-icon\">R</span> Interact</p>\n<p><strong>Frequency</strong> once per day</p>\n<p><strong>Trigger</strong> A ranged weapon attack hits you but doesn't critically hit</p>\n<p><strong>Requirements</strong> You are aware of the attack and not flat-footed</p>\n<p><strong>Effect</strong> The bracers send the missile off-course. You gain a +2 circumstance bonus to AC against the triggering attack. If this would cause the attack to be a failure, the attack misses you.</p>\n<p>@Compendium[pf2e.equipment-effects.Effect: Bracers of Missile Deflection]{Effect: Bracers of Missile Deflection}</p>"
        },
        "equippedBulk": {
            "value": ""
        },
        "hardness": 0,
        "hp": {
            "brokenThreshold": 0,
            "max": 0,
            "value": 0
        },
        "level": {
            "value": 3
        },
        "negateBulk": {
            "value": "0"
        },
        "preciousMaterial": {
            "value": ""
        },
        "preciousMaterialGrade": {
            "value": ""
        },
        "price": {
            "value": {
                "gp": 52
            }
        },
        "quantity": 1,
        "rules": [],
        "size": "med",
        "source": {
            "value": "Pathfinder Core Rulebook"
        },
        "stackGroup": null,
        "traits": {
            "custom": "",
            "rarity": "common",
            "value": [
                "abjuration",
                "invested",
                "magical"
            ]
        },
        "usage": {
            "value": "wornbracers"
        },
        "weight": {
            "value": "L"
        }
    },
    "img": "systems/pf2e/icons/equipment/worn-items/other-worn-items/bracers-of-missile-deflection.webp",
    "name": "Bracers of Missile Deflection",
    "type": "equipment"
}
