{
    "_id": "MK3Fq0BV2uTspvXn",
    "data": {
        "armor": {
            "value": 2
        },
        "baseItem": null,
        "category": "shield",
        "check": {
            "value": 0
        },
        "containerId": "null",
        "description": {
            "value": "<p>This well-crafted wooden shield is covered in numerous seed pods with long spurs. You can Strike with these burrs as though they were <em>@Compendium[pf2e.equipment-srd.Shield Spikes]{+1 Striking Shield Spikes}</em>.</p>\n<hr />\n<p><strong>Activate</strong> <span class=\"pf2-icon\">1</span> Interact</p>\n<p><strong>Requirements</strong> Your previous action was a successful Strike with the burrs</p>\n<p><strong>Effect</strong> One of the burrs catches on the Strike's target, inflicting [[/r {1d10}[persistent,bleed]]] @Compendium[pf2e.conditionitems.Persistent Damage]{Persistent Bleed Damage}.</p>\n<hr />\n<table class=\"pf2-table\">\n<thead>\n<tr>\n<th>Hardness</th>\n<th>HP</th>\n<th>BT</th>\n</tr>\n</thead>\n<tbody>\n<tr>\n<td>5</td>\n<td>30</td>\n<td>15</td>\n</tr>\n</tbody>\n</table>"
        },
        "dex": {
            "value": 0
        },
        "equippedBulk": {
            "value": ""
        },
        "group": null,
        "hardness": 5,
        "hp": {
            "brokenThreshold": 15,
            "max": 30,
            "value": 30
        },
        "level": {
            "value": 5
        },
        "negateBulk": {
            "value": "0"
        },
        "potencyRune": {
            "value": 0
        },
        "preciousMaterial": {
            "value": null
        },
        "preciousMaterialGrade": {
            "value": null
        },
        "price": {
            "value": {
                "gp": 160
            }
        },
        "propertyRune1": {
            "value": ""
        },
        "propertyRune2": {
            "value": ""
        },
        "propertyRune3": {
            "value": ""
        },
        "propertyRune4": {
            "value": ""
        },
        "quantity": 1,
        "resiliencyRune": {
            "value": ""
        },
        "rules": [],
        "size": "med",
        "source": {
            "value": "Pathfinder Secrets of Magic"
        },
        "speed": {
            "value": 0
        },
        "stackGroup": null,
        "strength": {
            "value": 0
        },
        "traits": {
            "custom": "",
            "rarity": "common",
            "value": [
                "magical",
                "necromancy"
            ]
        },
        "usage": {
            "value": "held-in-one-hand"
        },
        "weight": {
            "value": "L"
        }
    },
    "img": "systems/pf2e/icons/equipment/shields/specific-shields/burr-shield.webp",
    "name": "Burr Shield",
    "type": "armor"
}
