{
    "_id": "1tqyghMGI6PEYFGK",
    "data": {
        "baseItem": null,
        "containerId": null,
        "description": {
            "value": "<p>This shining symbol of Sarenrae depicts the goddess with her arms held wide. In the center of the symbol is a crystal reliquary with a perfect feather floating inside, glowing bright as a candle with the light of the goddess.</p>\n<p><strong>Activate</strong> Cast a Spell</p>\n<p><strong>Frequency</strong> once per day for each spell</p>\n<p><strong>Effect</strong> The <em>dawnlight</em> casts 1st-level <em>@Compendium[pf2e.spells-srd.Disrupt Undead]{Disrupt Undead}</em> or <em>@Compendium[pf2e.spells-srd.Light]{Light}</em>. The <em>dawnlight</em>'s spell attack roll and counteract modifier are +7, and any spell with the light trait is treated as though its counteract level were 1 higher for counteracting darkness.</p>\n<hr />\n<p><strong>Craft Requirements</strong> You have a spellcasting class feature with the divine tradition.</p>"
        },
        "equippedBulk": {
            "value": ""
        },
        "hardness": 0,
        "hp": {
            "brokenThreshold": 0,
            "max": 0,
            "value": 0
        },
        "level": {
            "value": 3
        },
        "negateBulk": {
            "value": "0"
        },
        "preciousMaterial": {
            "value": null
        },
        "preciousMaterialGrade": {
            "value": null
        },
        "price": {
            "value": {
                "gp": 60
            }
        },
        "quantity": 1,
        "rules": [],
        "size": "med",
        "source": {
            "value": "Pathfinder Book of the Dead"
        },
        "stackGroup": "",
        "traits": {
            "custom": "",
            "rarity": "uncommon",
            "value": [
                "divine",
                "evocation"
            ]
        },
        "usage": {
            "value": "held-in-one-hand"
        },
        "weight": {
            "value": "L"
        }
    },
    "img": "systems/pf2e/icons/default-icons/equipment.svg",
    "name": "Dawnlight",
    "type": "equipment"
}
