{
    "_id": "SNxXDIoD0XE9WVQ7",
    "data": {
        "baseItem": null,
        "containerId": "null",
        "description": {
            "value": "<p>This rune depicts a specific type of dragon, resizing after application to fit the surface of the item.</p>\n<hr />\n<p><strong>Activate</strong> <span class=\"pf2-icon\">f</span> envision (metamagic)</p>\n<p><strong>Requirements</strong> You're receiving a bonus to AC from your <em>dragon's breath</em> cape or shield</p>\n<p><strong>Effect</strong> If your next action is to @Compendium[pf2e.actionspf2e.Cast a Spell]{Cast a Spell} with an area of effect that deals the same type of damage as the depicted dragon's breath weapon, the spell gains the effects of the @Compendium[pf2e.feats-srd.Widen Spell]{Widen Spell} feat. The rune can only affect spells of 6th level or lower.</p>"
        },
        "equippedBulk": {
            "value": ""
        },
        "hardness": 0,
        "hp": {
            "brokenThreshold": 0,
            "max": 0,
            "value": 0
        },
        "level": {
            "value": 14
        },
        "negateBulk": {
            "value": "0"
        },
        "preciousMaterial": {
            "value": null
        },
        "preciousMaterialGrade": {
            "value": null
        },
        "price": {
            "value": {
                "gp": 4500
            }
        },
        "quantity": 1,
        "rules": [],
        "size": "med",
        "source": {
            "value": "Pathfinder Lost Omens: The Grand Bazaar"
        },
        "stackGroup": null,
        "traits": {
            "custom": "",
            "rarity": "uncommon",
            "value": [
                "magical",
                "transmutation"
            ]
        },
        "usage": {
            "value": "applied-to-dueling-cape-or-shield"
        },
        "weight": {
            "value": "-"
        }
    },
    "img": "systems/pf2e/icons/equipment/consumables/other-consumables/runestone.webp",
    "name": "Dragon's Breath (6th Level Spell)",
    "type": "equipment"
}
