{
    "_id": "bTLmJMATrrtq8NuT",
    "data": {
        "baseItem": null,
        "containerId": null,
        "description": {
            "value": "<p>This amulet is made from the scales of five ancient dragons. You gain resistance 5 to acid, cold, electricity, fire, and poison. If you take damage of one of these types from a dragon's Breath Weapon, the amulet begins to glow brightly; for the next 10 minutes, your resistance against that type of damage increases to 20. If you are subjected to a dragon's frightful presence, you can roll your saving throw twice and use the higher result to determine the aura's effects. This is a fortune effect.</p>\n<p><strong>Activate</strong> <span class=\"pf2-icon\">D</span> command</p>\n<p><strong>Frequency</strong> once per day</p>\n<p><strong>Effect</strong> You exude an aura that terrifies all foes in a 60-foot radius, as the frightful presence ability with a @Check[type:will|dc:34] save.</p>"
        },
        "equippedBulk": {
            "value": ""
        },
        "hardness": 0,
        "hp": {
            "brokenThreshold": 0,
            "max": 0,
            "value": 0
        },
        "level": {
            "value": 15
        },
        "negateBulk": {
            "value": ""
        },
        "preciousMaterial": {
            "value": ""
        },
        "preciousMaterialGrade": {
            "value": ""
        },
        "price": {
            "value": {
                "gp": 5800
            }
        },
        "quantity": 1,
        "rules": [],
        "size": "med",
        "source": {
            "value": "Pathfinder #148: Fires of the Haunted City"
        },
        "stackGroup": null,
        "traits": {
            "custom": "",
            "rarity": "rare",
            "value": [
                "enchantment",
                "invested",
                "magical"
            ]
        },
        "usage": {
            "value": "worn"
        },
        "weight": {
            "value": "-"
        }
    },
    "img": "systems/pf2e/icons/equipment/worn-items/other-worn-items/dragonscale-amulet.webp",
    "name": "Dragonscale Amulet",
    "type": "equipment"
}
