{
    "_id": "Gfu13B6b9eDdHCtV",
    "data": {
        "MAP": {
            "value": ""
        },
        "baseItem": null,
        "bonus": {
            "value": 0
        },
        "bonusDamage": {
            "value": 0
        },
        "category": "advanced",
        "containerId": "null",
        "damage": {
            "damageType": "fire",
            "dice": 1,
            "die": "d10",
            "value": ""
        },
        "description": {
            "value": "<p>A drake rifle is a firearm made from the saliva glands of a drake. The firearm launches small bursts of empowered spittle instead of typical rounds of ammunition. A drake rifle is a +1 weapon. It's a distinct type of martial firearm that deals 1d10 acid damage with a range increment of 150 feet and reload 1. On a critical hit, the spittle clings to the target and they take persistent damage of the same type as the weapon equal to [[/r {1d4+1+@item.data.data.runes.striking}[persistent,fire]]]{1d4 + the number of weapon damage dice}. A drake rifle does not add critical specialization effects.</p>\n<hr />\n<p>Activate <span class=\"pf2-icon\">3</span> Interact (evocation, magical)</p>\n<p><strong>Frequency</strong> once per day</p>\n<p><strong>Effect</strong> You fire a large, specialized burst designed to hamper your foes. Make a ranged Strike with the drake rifle. As long as the Strike isn't a critical failure, the drake rifle deals [[/r {1}[splash,fire]]]{1 Fire Splash Damage} per weapon damage die to the target and creatures within 5 feet of the target. On a hit, the drake rifle provides the following additional effect:</p>\n<ul>\n<li><strong>Fire</strong> A massive explosion knocks the target back. The target is pushed 10 feet away from you, and if it's on the ground, it falls @Compendium[pf2e.conditionitems.Prone]{Prone}.</li>\n</ul>\n<p><strong>Craft Requirements</strong> The initial raw materials must include the saliva glands of a ritually hunted drake with a breath weapon that deals the appropriate damage type for the drake rifle</p>"
        },
        "equippedBulk": {
            "value": ""
        },
        "group": "firearm",
        "hardness": 0,
        "hp": {
            "brokenThreshold": 0,
            "max": 0,
            "value": 0
        },
        "level": {
            "value": 4
        },
        "negateBulk": {
            "value": "0"
        },
        "potencyRune": {
            "value": 1
        },
        "preciousMaterial": {
            "value": null
        },
        "preciousMaterialGrade": {
            "value": null
        },
        "price": {
            "value": {
                "gp": 100
            }
        },
        "property1": {
            "critDamage": "",
            "critDamageType": "",
            "critDice": 0,
            "critDie": "",
            "criticalConditionType": "",
            "criticalConditionValue": null,
            "damageType": "",
            "dice": 0,
            "die": "",
            "strikeConditionType": "",
            "strikeConditionValue": null,
            "value": ""
        },
        "propertyRune1": {
            "value": null
        },
        "propertyRune2": {
            "value": null
        },
        "propertyRune3": {
            "value": null
        },
        "propertyRune4": {
            "value": null
        },
        "quantity": 1,
        "range": 150,
        "reload": {
            "value": "1"
        },
        "rules": [
            {
                "key": "Note",
                "outcome": [
                    "criticalSuccess"
                ],
                "selector": "{item|_id}-damage",
                "text": "<p class='compact text'><strong>Drake Rifle</strong> On a critical hit, the spittle clings to the target and they take persistent damage of the same type as the weapon equal to [[/r {1d4+1+@item.data.data.runes.striking}[persistent,fire]]]{1d4 + the number of weapon damage dice}. A drake rifle does not add critical specialization effects.</p></p>"
            }
        ],
        "size": "med",
        "source": {
            "value": "Pathfinder Guns & Gears"
        },
        "specific": {
            "material": null,
            "runes": {
                "potency": 1,
                "striking": ""
            },
            "value": true
        },
        "splashDamage": {
            "value": 0
        },
        "stackGroup": null,
        "strikingRune": {
            "value": ""
        },
        "traits": {
            "custom": "",
            "rarity": "uncommon",
            "value": [
                "evocation",
                "magical"
            ]
        },
        "usage": {
            "value": "held-in-two-hands"
        },
        "weight": {
            "value": "2"
        }
    },
    "img": "systems/pf2e/icons/default-icons/weapon.svg",
    "name": "Drake Rifle (Fire)",
    "type": "weapon"
}
