{
    "_id": "o5jn0wvPaSh65p3J",
    "data": {
        "baseItem": null,
        "containerId": null,
        "description": {
            "value": "<p>Hummingbird wayfinders blend a few Arcadian secrets into the original wayfinder design, allowing the wayfinder to gain mobility for a time and act as a spy. In addition to the effects of a @Compendium[pf2e.equipment-srd.Wayfinder]{Wayfinder}, a hummingbird wayfinder has the following activation.</p>\n<hr />\n<p><strong>Activate</strong> <span class=\"pf2-icon\">2</span> command, Interact</p>\n<p><strong>Frequency</strong> once per hour</p>\n<p><strong>Effect</strong> You cause the wayfinder to transform into a Tiny bee hummingbird, only 2 inches long. Other than the wayfinder being a visible bird, this has the effects of <em>@Compendium[pf2e.spells-srd.Prying Eye]{Prying Eye}</em>. In addition to Seeking through the hummingbird, you can activate any aeon stone within the wayfinder as if the wayfinder were still on your person. When the effect ends, the wayfinder transforms back to normal in its current position. Damaging the bird ends the effect but does not destroy the wayfinder.</p>"
        },
        "equippedBulk": {
            "value": ""
        },
        "hardness": 0,
        "hp": {
            "brokenThreshold": 0,
            "max": 0,
            "value": 0
        },
        "level": {
            "value": 12
        },
        "negateBulk": {
            "value": "0"
        },
        "preciousMaterial": {
            "value": ""
        },
        "preciousMaterialGrade": {
            "value": ""
        },
        "price": {
            "value": {
                "gp": 1750
            }
        },
        "quantity": 1,
        "rules": [
            {
                "domain": "skill-check",
                "key": "RollOption",
                "option": "compass-in-possession",
                "requiresEquipped": false
            }
        ],
        "size": "med",
        "source": {
            "value": "Pathfinder Lost Omens: Pathfinder Society Guide"
        },
        "stackGroup": null,
        "traits": {
            "custom": "",
            "rarity": "uncommon",
            "value": [
                "evocation",
                "invested",
                "magical",
                "transmutation"
            ]
        },
        "usage": {
            "value": "worn"
        },
        "weight": {
            "value": "-"
        }
    },
    "img": "systems/pf2e/icons/equipment/worn-items/other-worn-items/wayfinder.webp",
    "name": "Hummingbird Wayfinder",
    "type": "equipment"
}
