{
    "_id": "bxz885LMjLCkpDq3",
    "data": {
        "baseItem": null,
        "containerId": null,
        "description": {
            "value": "<p>Light seems to partially penetrate this armor.</p>\n<p><strong>Activate</strong> <span class=\"pf2-icon\">A</span> command</p>\n<p><strong>Frequency</strong> three times per day</p>\n<p><strong>Effect</strong> Whispering the command word, you become invisible for 1 minute, gaining the effects of a 2nd-level <em>@Compendium[pf2e.spells-srd.Invisibility]{Invisibility}</em> spell.</p>\n<p><strong>Craft Requirements</strong> Supply one casting of <em>invisibility</em>.</p>"
        },
        "equippedBulk": {
            "value": ""
        },
        "hardness": 0,
        "hp": {
            "brokenThreshold": 0,
            "max": 0,
            "value": 0
        },
        "level": {
            "value": 10
        },
        "negateBulk": {
            "value": "0"
        },
        "preciousMaterial": {
            "value": ""
        },
        "preciousMaterialGrade": {
            "value": ""
        },
        "price": {
            "value": {
                "gp": 1000
            }
        },
        "quantity": 1,
        "rules": [],
        "size": "med",
        "source": {
            "value": "Pathfinder Core Rulebook"
        },
        "stackGroup": null,
        "traits": {
            "custom": "",
            "rarity": "common",
            "value": [
                "illusion",
                "magical"
            ]
        },
        "usage": {
            "value": "held-in-one-hand"
        },
        "weight": {
            "value": "-"
        }
    },
    "img": "systems/pf2e/icons/equipment/runes/armor-property-runes/armor-property-runes.webp",
    "name": "Invisibility (Greater)",
    "type": "equipment"
}
