{
    "_id": "BdNRM9VTxs5BYq0C",
    "data": {
        "MAP": {
            "value": ""
        },
        "baseItem": "piercing-wind",
        "bonus": {
            "value": 0
        },
        "bonusDamage": {
            "value": 0
        },
        "category": "martial",
        "containerId": "null",
        "damage": {
            "damageType": "piercing",
            "dice": 1,
            "die": "d6",
            "value": ""
        },
        "description": {
            "value": "<p><strong>Perception</strong> +13; precise vision 30 feet, imprecise hearing 30 feet</p>\n<p><strong>Communication</strong> empathy</p>\n<p><strong>Skills</strong> Diplomacy +14, Survival +16</p>\n<p><strong>Int</strong> +1, <strong>Wis</strong> +5, <strong>Cha</strong> +3</p>\n<p><strong>Will</strong> +18</p>\n<hr />\n<p><em>Jax</em> was a caravan guard who died defending her charges from a pack of Lamashtan cultists in the Spellscar Desert. Her spirit of fury and hopelessness infused her weapon upon her death, imbuing the firearm with a fragment of her soul and intelligence. The rifle, upon awakening, remembered just enough of <em>Jax</em>'s former life to think of her former wielder's name as her own.</p>\n<p><em>Jax</em> is a <em>+1 striking fearsome piercing wind</em> whose driving purpose is to protect innocent travelers in the Spellscar Desert from raiders, bandits, and cultists. <em>Jax</em> allows any creature to wield her, but she doesn't reveal her intelligence or powers until she detects an innocent in danger or if her wielder has proven themselves a worthy champion of justice. If she deems a wielder to be unworthy, <em>Jax</em> uses her dominate ability to control the wielder until she can find a new one.</p>\n<p>If ever used to attack an innocent traveler, or if, in <em>Jax</em>'s opinion, the attack could be considered banditry, the weapon automatically misfires. If <em>Jax</em> witnesses an innocent harmed or killed, she empathically urges her wielder to avenge the victim. If the wielder doesn't comply, <em>Jax</em> attempts to cast dominate (below). Even if the dominate spell fails, <em>Jax</em> withholds all magical abilities, including the +1 weapon potency rune and striking rune, until her wielder redeems themself.</p>\n<hr />\n<p><strong>Activate</strong> <span class=\"pf2-icon\">1</span> (command)</p>\n<p><strong>Frequency</strong> once per day</p>\n<p><strong>Effect</strong> <em>Jax</em> casts <em>@Compendium[pf2e.spells-srd.Heroism]{Heroism}</em> on you.</p>\n<hr />\n<p><strong>Activate</strong> <span class=\"pf2-icon\">1</span> (command)</p>\n<p><strong>Frequency</strong> once per day</p>\n<p><strong>Effect</strong> <em>Jax</em> deems you an unworthy agent of justice. She casts<em> @Compendium[pf2e.spells-srd.Dominate]{Dominate}</em> on you (@Check[type:will|dc:24|name:Dominate|traits:mental,incapacitation,divine,spell,enchantment|overrideTraits:true]). If you're chaotic or a worshipper of Lamashtu, you take a -2 penalty to your Will save, and the result of your save is one degree of success worse than the result you rolled. <em>Jax</em> orders you to fight banditry and protect innocent travelers in the Spellscar Desert, renewing the spell as often as necessary until you cease your lawless ways.</p>"
        },
        "equippedBulk": {
            "value": ""
        },
        "group": "firearm",
        "hardness": 0,
        "hp": {
            "brokenThreshold": 0,
            "max": 0,
            "value": 0
        },
        "level": {
            "value": 8
        },
        "meleeUsage": {
            "damage": {
                "die": "d4",
                "type": "slashing"
            },
            "group": "sword",
            "traits": [
                "critical-fusion",
                "finesse",
                "forceful",
                "sweep"
            ]
        },
        "negateBulk": {
            "value": "0"
        },
        "potencyRune": {
            "value": 1
        },
        "preciousMaterial": {
            "value": null
        },
        "preciousMaterialGrade": {
            "value": null
        },
        "price": {
            "value": {}
        },
        "property1": {
            "critDamage": "",
            "critDamageType": "",
            "critDice": 0,
            "critDie": "",
            "criticalConditionType": "",
            "criticalConditionValue": null,
            "damageType": "",
            "dice": 0,
            "die": "",
            "strikeConditionType": "",
            "strikeConditionValue": null,
            "value": ""
        },
        "propertyRune1": {
            "value": "fearsome"
        },
        "propertyRune2": {
            "value": null
        },
        "propertyRune3": {
            "value": null
        },
        "propertyRune4": {
            "value": null
        },
        "quantity": 1,
        "range": 40,
        "reload": {
            "value": "1"
        },
        "rules": [],
        "size": "med",
        "source": {
            "value": "Pathfinder #179: Cradle of Quartz"
        },
        "specific": {
            "material": null,
            "runes": {
                "potency": 1,
                "striking": "striking"
            },
            "value": true
        },
        "splashDamage": {
            "value": 0
        },
        "stackGroup": null,
        "strikingRune": {
            "value": "striking"
        },
        "traits": {
            "custom": "",
            "rarity": "unique",
            "value": [
                "combination",
                "concussive",
                "cursed",
                "divine",
                "evocation",
                "fatal-aim-d10",
                "intelligent"
            ]
        },
        "usage": {
            "value": "held-in-two-hands"
        },
        "weight": {
            "value": "1"
        }
    },
    "img": "systems/pf2e/icons/equipment/weapons/piercing-wind.webp",
    "name": "Jax",
    "type": "weapon"
}
