{
    "_id": "1gi4mdZYNgPrzWHc",
    "data": {
        "MAP": {
            "value": ""
        },
        "baseItem": "rhoka-sword",
        "bonus": {
            "value": 0
        },
        "bonusDamage": {
            "value": 0
        },
        "category": "advanced",
        "containerId": null,
        "damage": {
            "damageType": "slashing",
            "dice": 1,
            "die": "d8",
            "value": ""
        },
        "description": {
            "value": "<p>The twin serrated blades of this legendary rhoka sword are dull black and constantly drip with blood. Life's Last Breath is said to have been forged centuries ago for an unknown urdefhan general and has since fallen into the hands of countless other powerful urdefhan warlords.</p>\n<p>Life's Last Breath is a +3 greater striking @Compendium[pf2e.equipment-srd.Unholy]{Unholy} @Compendium[pf2e.equipment-srd.Wounding]{Wounding} rhoka sword with the following special abilities.</p>\n<hr />\n<p><strong>Activate</strong> <span class=\"pf2-icon\">R</span> command</p>\n<p><strong>Frequency</strong> once per day</p>\n<p><strong>Requirements</strong> You successfully Strike a creature with <em>Life's Last Breath</em></p>\n<p><strong>Effect</strong> You cast a 9th-level <em>@Compendium[pf2e.spells-srd.Paralyze]{Paralyze}</em> spell on the target.</p>\n<hr />\n<p><strong>Activate</strong> <span class=\"pf2-icon\">R</span> envision</p>\n<p><strong>Frequency</strong> once per 10 minutes</p>\n<p><strong>Trigger</strong> You successfully Strike a creature with <em>Life's Last Breath</em></p>\n<p><strong>Effect</strong> The target must succeed at a DC 38 Fortitude save or take [[/r 4d6]] negative damage; you gain an equal amount of temporary Hit Points that last 1 minute.</p>"
        },
        "equippedBulk": {
            "value": ""
        },
        "group": "sword",
        "hardness": 0,
        "hp": {
            "brokenThreshold": 0,
            "max": 0,
            "value": 0
        },
        "level": {
            "value": 18
        },
        "negateBulk": {
            "value": "0"
        },
        "potencyRune": {
            "value": 3
        },
        "preciousMaterial": {
            "value": null
        },
        "preciousMaterialGrade": {
            "value": null
        },
        "price": {
            "value": {
                "gp": 23500
            }
        },
        "property1": {
            "critDamage": "",
            "critDamageType": "",
            "critDice": null,
            "critDie": "",
            "criticalConditionType": "",
            "criticalConditionValue": null,
            "damageType": "",
            "dice": null,
            "die": "",
            "strikeConditionType": "",
            "strikeConditionValue": null,
            "value": ""
        },
        "propertyRune1": {
            "value": "unholy"
        },
        "propertyRune2": {
            "value": "wounding"
        },
        "propertyRune3": {
            "value": null
        },
        "propertyRune4": {
            "value": null
        },
        "quantity": 1,
        "range": null,
        "reload": {
            "value": ""
        },
        "rules": [],
        "size": "med",
        "source": {
            "value": "Pathfinder #155: Lord of the Black Sands"
        },
        "specific": {
            "material": null,
            "runes": {
                "potency": 3,
                "striking": "greaterStriking"
            },
            "value": true
        },
        "splashDamage": {
            "value": null
        },
        "stackGroup": null,
        "strikingRune": {
            "value": "greaterStriking"
        },
        "traits": {
            "custom": "",
            "rarity": "unique",
            "value": [
                "deadly-d8",
                "evil",
                "magical",
                "necromancy",
                "two-hand-d10"
            ]
        },
        "usage": {
            "value": "held-in-one-hand"
        },
        "weight": {
            "value": "2"
        }
    },
    "img": "systems/pf2e/icons/equipment/weapons/specific-magic-weapons/lifes-last-breath.webp",
    "name": "Life's Last Breath",
    "type": "weapon"
}
