{
    "_id": "R8I13CDRzvpVXOVe",
    "data": {
        "baseItem": null,
        "containerId": null,
        "description": {
            "value": "<p>This rune turns weapons into instruments of peacemaking.</p>\n<p><strong>Activate</strong> <span class=\"pf2-icon\">R</span> (Mental) command</p>\n<p><strong>Trigger</strong> You damage a creature with a pacifying weapon</p>\n<p><strong>Effect</strong> The damaged creature must succeed at a @Check[type:will|dc:20] save or be pacified. A pacified creature takes a -2 penalty to attack rolls on any attacks that aren't nonlethal for 1 minute, and the creature also experiences a clear psychic warning that they should stop dealing lethal damage.</p>"
        },
        "equippedBulk": {
            "value": ""
        },
        "hardness": 0,
        "hp": {
            "brokenThreshold": 0,
            "max": 0,
            "value": 0
        },
        "level": {
            "value": 5
        },
        "negateBulk": {
            "value": "0"
        },
        "preciousMaterial": {
            "value": ""
        },
        "preciousMaterialGrade": {
            "value": ""
        },
        "price": {
            "value": {
                "gp": 150
            }
        },
        "quantity": 1,
        "rules": [],
        "size": "med",
        "source": {
            "value": "Pathfinder #157: Devil at the Dreaming Palace"
        },
        "stackGroup": null,
        "traits": {
            "custom": "",
            "rarity": "uncommon",
            "value": [
                "enchantment",
                "magical"
            ]
        },
        "usage": {
            "value": "etched-onto-a-weapon"
        },
        "weight": {
            "value": "-"
        }
    },
    "img": "systems/pf2e/icons/equipment/runes/weapon-property-runes/weapon-property-runes.webp",
    "name": "Pacifying",
    "type": "equipment"
}
