{
    "_id": "3SjF539wVL6NK9qq",
    "data": {
        "MAP": {
            "value": ""
        },
        "baseItem": "flintlock-pistol",
        "bonus": {
            "value": 0
        },
        "bonusDamage": {
            "value": 0
        },
        "category": "simple",
        "containerId": "null",
        "damage": {
            "damageType": "piercing",
            "dice": 1,
            "die": "d4",
            "value": ""
        },
        "description": {
            "value": "<p>This +2 greater striking flintlock pistol bears strange, jagged markings of erratic design and has an oddly squishy grip. It can be activated to produce a variety of unusual effects.</p>\n<p><strong>Activation</strong> <span class=\"pf2-icon\">2</span> command, Interact</p>\n<p><strong>Effect</strong> Choose a creature within 60 feet and roll a percentile die on the table below to determine the pistol's effect. If an entry lists a spell, the pistol Casts that Spell at the indicated level (or at its lowest level, if no level is listed). You make any decisions for a spell cast by the pistol unless otherwise indicated, except that it must only target the creature you chose, or the creature you chose must be the center of the spell's area, if it has an area but no targets. The only exception to the limitation on targeting is if the effect specifically states it targets you. If the spell's range is less than 60 feet, increase the range to 60 feet.</p>\n<p>Any spell DC required is DC 29, and any spell attack roll required is +21. If the pistol casts a spell on you, you don't get a saving throw or any other defense against it. Once activated, the pistol can't be activated again for [[/r 1d4 #hours]]{1d4 hours}.</p>\n<table class=\"pf2-table\" style=\"width: 98.5149%; height: 1856px;\">\n<thead>\n<tr style=\"height: 29px;\">\n<th style=\"width: 13.3794%; height: 29px;\">d%</th>\n<th style=\"width: 86.3693%; height: 29px;\">Wondrous Effect</th>\n</tr>\n</thead>\n<tbody>\n<tr style=\"height: 77px;\">\n<td style=\"width: 13.3794%; height: 77px;\">1-2</td>\n<td style=\"width: 86.3693%; height: 77px;\">The pistol casts <em>@Compendium[pf2e.spells-srd.Phantom Steed]{Phantom Steed}</em> (4th level) to produce a pale horse adjacent to you; only you can ride it.</td>\n</tr>\n<tr style=\"height: 61px;\">\n<td style=\"width: 13.3794%; height: 61px;\">3</td>\n<td style=\"width: 86.3693%; height: 61px;\">The target becomes a shiny metal color (bronze, copper, or iron) and any sound or speech becomes tinny and robotic in nature; this effect lasts 1 month.</td>\n</tr>\n<tr style=\"height: 45px;\">\n<td style=\"width: 13.3794%; height: 45px;\">4-5</td>\n<td style=\"width: 86.3693%; height: 45px;\">The pistol casts <em>@Compendium[pf2e.spells-srd.Dimensional Anchor]{Dimensional Anchor}</em>.</td>\n</tr>\n<tr style=\"height: 61px;\">\n<td style=\"width: 13.3794%; height: 61px;\">6</td>\n<td style=\"width: 86.3693%; height: 61px;\"><em>@Compendium[pf2e.spells-srd.Modify Memory]{Modify Memory}</em> (6th level) causes the target to forget you ever existed; you can't Sustain the Spell.</td>\n</tr>\n<tr style=\"height: 77px;\">\n<td style=\"width: 13.3794%; height: 77px;\">7-13</td>\n<td style=\"width: 86.3693%; height: 77px;\">A short rod protrudes from the pistol and unfurls a small flag that reads \"Bang!\". The pistol can't be fired until the flag is removed, which requires a single Interact action.</td>\n</tr>\n<tr style=\"height: 77px;\">\n<td style=\"width: 13.3794%; height: 77px;\">14-16</td>\n<td style=\"width: 86.3693%; height: 77px;\">You are pushed 30 feet directly away from the target; if you hit an object or creature, you stop, but take falling damage equal to the distance you moved (if you hit a creature, it takes the same amount of falling damage).</td>\n</tr>\n<tr style=\"height: 93px;\">\n<td style=\"width: 13.3794%; height: 93px;\">17-19</td>\n<td style=\"width: 86.3693%; height: 93px;\">The target is pushed 30 feet directly away from you; if it hits an object or creature, it stops, but takes falling damage equal to the distance it moved (if it hits another creature, the othercreature takes the same amount of falling damage).</td>\n</tr>\n<tr style=\"height: 29px;\">\n<td style=\"width: 13.3794%; height: 29px;\">20</td>\n<td style=\"width: 86.3693%; height: 29px;\">You don't need to eat or drink for 1 week.</td>\n</tr>\n<tr style=\"height: 45px;\">\n<td style=\"width: 13.3794%; height: 45px;\">21-25</td>\n<td style=\"width: 86.3693%; height: 45px;\">The pistol casts <em>@Compendium[pf2e.spells-srd.Cloudkill]{Cloudkill}</em>.</td>\n</tr>\n<tr style=\"height: 45px;\">\n<td style=\"width: 13.3794%; height: 45px;\">26-30</td>\n<td style=\"width: 86.3693%; height: 45px;\">The pistol casts <em>@Compendium[pf2e.spells-srd.Heroism]{Heroism}</em> on you.</td>\n</tr>\n<tr style=\"height: 93px;\">\n<td style=\"width: 13.3794%; height: 93px;\">31</td>\n<td style=\"width: 86.3693%; height: 93px;\">The pistol casts <em>@Compendium[pf2e.spells-srd.Tree Shape]{Tree Shape}</em> on you, except you appear as a Medium wooden grave marker bearing your name and the current date; you can't Dismiss the spell for 1 round.</td>\n</tr>\n<tr style=\"height: 77px;\">\n<td style=\"width: 13.3794%; height: 77px;\">32</td>\n<td style=\"width: 86.3693%; height: 77px;\">The pistol casts <em>@Compendium[pf2e.spells-srd.Mask of Terror]{Mask of Terror}</em>, except the target appears as a more fearsome and violent version of itself to all observers.</td>\n</tr>\n<tr style=\"height: 93px;\">\n<td style=\"width: 13.3794%; height: 93px;\">33-35</td>\n<td style=\"width: 86.3693%; height: 93px;\">The target knows you have a bullet with its name on it; the first time you Strike the target with the pistol before the end of your next turn, roll the attack roll twice and take the highest result (this is a fortune effect).</td>\n</tr>\n<tr style=\"height: 61px;\">\n<td style=\"width: 13.3794%; height: 61px;\">36-37</td>\n<td style=\"width: 86.3693%; height: 61px;\">The pistol casts <em>@Compendium[pf2e.spells-srd.Cloak of Colors]{Cloak of Colors}</em> on you with a duration of 1d10 rounds.</td>\n</tr>\n<tr style=\"height: 61px;\">\n<td style=\"width: 13.3794%; height: 61px;\">38-47</td>\n<td style=\"width: 86.3693%; height: 61px;\">The pistol casts <em>@Compendium[pf2e.spells-srd.Hydraulic Push]{Hydraulic Push}</em> (4th level) as water streams from the pistol.</td>\n</tr>\n<tr style=\"height: 77px;\">\n<td style=\"width: 13.3794%; height: 77px;\">48-50</td>\n<td style=\"width: 86.3693%; height: 77px;\">The pistol casts <em>@Compendium[pf2e.spells-srd.Dimension Door]{Dimension Door}</em> on you, teleporting you to the space adjacent to the target opposite your current position; if that space isn't clear, you instead teleport to the nearest open space.</td>\n</tr>\n<tr style=\"height: 29px;\">\n<td style=\"width: 13.3794%; height: 29px;\">51</td>\n<td style=\"width: 86.3693%; height: 29px;\">The pistol casts <em>@Compendium[pf2e.spells-srd.Disintegrate]{Disintegrate}</em>.</td>\n</tr>\n<tr style=\"height: 77px;\">\n<td style=\"width: 13.3794%; height: 77px;\">52</td>\n<td style=\"width: 86.3693%; height: 77px;\">Dozens of tattered, nonmagical playing cards burst from the pistol's barrel.</td>\n</tr>\n<tr>\n<td style=\"width: 13.3794%;\">53-54</td>\n<td style=\"width: 86.3693%;\">Shadows crowd around the target, making all creatures @Compendium[pf2e.conditionitems.Concealed]{Concealed} to the target while not in bright light; this effect lasts for 1 hour.</td>\n</tr>\n<tr style=\"height: 45px;\">\n<td style=\"width: 13.3794%; height: 45px;\">55-57</td>\n<td style=\"width: 86.3693%; height: 45px;\">Normal vegetation within 30 feet of the target immediately dies and turns to ash.</td>\n</tr>\n<tr style=\"height: 77px;\">\n<td style=\"width: 13.3794%; height: 77px;\">58</td>\n<td style=\"width: 86.3693%; height: 77px;\">The pistol casts <em>@Compendium[pf2e.spells-srd.Dinosaur Form]{Dinosaur Form}</em> on you to transform you into a triceratops; the pistol protrudes from the base of your front horn, and you can fire (but not reload) the pistol while in this form.</td>\n</tr>\n<tr style=\"height: 45px;\">\n<td style=\"width: 13.3794%; height: 45px;\">59</td>\n<td style=\"width: 86.3693%; height: 45px;\">All non-artifact ammunition in your possession crumbles to dust.</td>\n</tr>\n<tr style=\"height: 45px;\">\n<td style=\"width: 13.3794%; height: 45px;\">60-69</td>\n<td style=\"width: 86.3693%; height: 45px;\">You are @Compendium[pf2e.conditionitems.Quickened]{Quickened} for 1 minute. You can use the extra action only to reload or fire the pistol.</td>\n</tr>\n<tr style=\"height: 45px;\">\n<td style=\"width: 13.3794%; height: 45px;\">70-71</td>\n<td style=\"width: 86.3693%; height: 45px;\">The target is @Compendium[pf2e.conditionitems.Quickened]{Quickened} for 1 minute. It can use the extra action only to Step or Stride.</td>\n</tr>\n<tr style=\"height: 45px;\">\n<td style=\"width: 13.3794%; height: 45px;\">72-79</td>\n<td style=\"width: 86.3693%; height: 45px;\">The pistol casts <em>@Compendium[pf2e.spells-srd.Phantasmal Killer]{Phantasmal Killer}</em>.</td>\n</tr>\n<tr style=\"height: 45px;\">\n<td style=\"width: 13.3794%; height: 45px;\">80-81</td>\n<td style=\"width: 86.3693%; height: 45px;\">Dozens of bullet holes appear in the target's nonmagical clothing. The effect is purely cosmetic.</td>\n</tr>\n<tr style=\"height: 45px;\">\n<td style=\"width: 13.3794%; height: 45px;\">82-85</td>\n<td style=\"width: 86.3693%; height: 45px;\">The pistol casts <em>@Compendium[pf2e.spells-srd.Outcast's Curse]{Outcast's Curse}</em>.</td>\n</tr>\n<tr style=\"height: 45px;\">\n<td style=\"width: 13.3794%; height: 45px;\">86</td>\n<td style=\"width: 86.3693%; height: 45px;\">The pistol vanishes, reappearing among your possessions once it can be activated again.</td>\n</tr>\n<tr style=\"height: 45px;\">\n<td style=\"width: 13.3794%; height: 45px;\">87-91</td>\n<td style=\"width: 86.3693%; height: 45px;\">The pistol casts <em>@Compendium[pf2e.spells-srd.Solid Fog]{Solid Fog}</em>, but with swirling dust and sand instead of fog.</td>\n</tr>\n<tr style=\"height: 77px;\">\n<td style=\"width: 13.3794%; height: 77px;\">92-96</td>\n<td style=\"width: 86.3693%; height: 77px;\">The pistol casts <em>@Compendium[pf2e.spells-srd.Stoneskin]{Stoneskin}</em> on you, making your skin rough and leathery; the target ignores the resistance you gain from this spell, and the target's attacks don't reduce the spell's duration.</td>\n</tr>\n<tr style=\"height: 45px;\">\n<td style=\"width: 13.3794%; height: 45px;\">97-99</td>\n<td style=\"width: 86.3693%; height: 45px;\">The pistol casts <em>@Compendium[pf2e.spells-srd.Uncontrollable Dance]{Uncontrollable Dance}</em> with a duration of 3 rounds, even on a failure or critical failure.</td>\n</tr>\n<tr style=\"height: 45px;\">\n<td style=\"width: 13.3794%; height: 45px;\">100</td>\n<td style=\"width: 86.3693%; height: 45px;\">Reroll two results and apply both in the order rolled; further results of 100 on these rerolls have no effect.</td>\n</tr>\n</tbody>\n</table>"
        },
        "equippedBulk": {
            "value": ""
        },
        "group": "firearm",
        "hardness": 0,
        "hp": {
            "brokenThreshold": 0,
            "max": 0,
            "value": 0
        },
        "level": {
            "value": 13
        },
        "negateBulk": {
            "value": "0"
        },
        "potencyRune": {
            "value": 2
        },
        "preciousMaterial": {
            "value": null
        },
        "preciousMaterialGrade": {
            "value": null
        },
        "price": {
            "value": {
                "gp": 3000
            }
        },
        "property1": {
            "critDamage": "",
            "critDamageType": "",
            "critDice": 0,
            "critDie": "",
            "criticalConditionType": "",
            "criticalConditionValue": null,
            "damageType": "",
            "dice": 0,
            "die": "",
            "strikeConditionType": "",
            "strikeConditionValue": null,
            "value": ""
        },
        "propertyRune1": {
            "value": null
        },
        "propertyRune2": {
            "value": null
        },
        "propertyRune3": {
            "value": null
        },
        "propertyRune4": {
            "value": null
        },
        "quantity": 1,
        "range": 40,
        "reload": {
            "value": "1"
        },
        "rules": [],
        "size": "med",
        "source": {
            "value": "Pathfinder Guns & Gears"
        },
        "specific": {
            "material": null,
            "price": "3000 gp",
            "runes": {
                "potency": 0,
                "striking": ""
            },
            "value": true
        },
        "splashDamage": {
            "value": 0
        },
        "stackGroup": null,
        "strikingRune": {
            "value": "greaterStriking"
        },
        "traits": {
            "custom": "",
            "rarity": "rare",
            "value": [
                "chaotic",
                "concussive",
                "evocation",
                "fatal-d8",
                "magical"
            ]
        },
        "usage": {
            "value": "held-in-one-hand"
        },
        "weight": {
            "value": "1"
        }
    },
    "img": "systems/pf2e/icons/equipment/weapons/flintlock-pistol.webp",
    "name": "Pistol of Wonder",
    "type": "weapon"
}
