{
    "_id": "H44rJpMzx6JyoKoa",
    "data": {
        "baseItem": null,
        "containerId": "null",
        "description": {
            "value": "<p>This <em>specialist's ring</em> is dedicated to the illusion school of magic, and the ring is covered in symbols and glyphs related to the illusion school according to the creator's arcane studies. You gain a +2 item bonus to Arcana checks, and a +1 circumstance bonus to recognize magical effects and items of the illusion school of magic.</p>\n<hr />\n<p><strong>Activate</strong> <span class=\"pf2-icon\">f</span> envision</p>\n<p><strong>Frequency</strong> once per day</p>\n<p><strong>Effect</strong> You gain 1 Focus Point, which you can use only to cast a wizard school spell of the illusion school. If not used by the end of your turn, this Focus Point is lost.</p>"
        },
        "equippedBulk": {
            "value": ""
        },
        "hardness": 0,
        "hp": {
            "brokenThreshold": 0,
            "max": 0,
            "value": 0
        },
        "level": {
            "value": 10
        },
        "negateBulk": {
            "value": "0"
        },
        "preciousMaterial": {
            "value": null
        },
        "preciousMaterialGrade": {
            "value": null
        },
        "price": {
            "value": {
                "gp": 1000
            }
        },
        "quantity": 1,
        "rules": [
            {
                "key": "FlatModifier",
                "selector": "arcana",
                "type": "item",
                "value": 2
            },
            {
                "key": "FlatModifier",
                "predicate": {
                    "all": [
                        "illusion",
                        "action:identify-magic"
                    ]
                },
                "selector": "arcana",
                "type": "status",
                "value": 1
            },
            {
                "key": "FlatModifier",
                "predicate": {
                    "all": [
                        "illusion",
                        "action:identify-magic"
                    ]
                },
                "selector": "religion",
                "type": "status",
                "value": 1
            },
            {
                "key": "FlatModifier",
                "predicate": {
                    "all": [
                        "illusion",
                        "action:identify-magic"
                    ]
                },
                "selector": "occultism",
                "type": "status",
                "value": 1
            },
            {
                "key": "FlatModifier",
                "predicate": {
                    "all": [
                        "illusion",
                        "action:identify-magic"
                    ]
                },
                "selector": "nature",
                "type": "status",
                "value": 1
            }
        ],
        "size": "med",
        "source": {
            "value": "Pathfinder Secrets of Magic"
        },
        "stackGroup": "",
        "traits": {
            "custom": "",
            "rarity": "common",
            "value": [
                "focused",
                "illusion",
                "invested",
                "magical"
            ]
        },
        "usage": {
            "value": "worn"
        },
        "weight": {
            "value": "-"
        }
    },
    "img": "systems/pf2e/icons/equipment/worn-items/other-worn-items/specialists-ring.webp",
    "name": "Specialist's Ring (Illusion)",
    "type": "equipment"
}
