{
    "_id": "xt4sb8vz8VRlJoKm",
    "data": {
        "MAP": {
            "value": ""
        },
        "baseItem": "staff",
        "bonus": {
            "value": 0
        },
        "bonusDamage": {
            "value": 0
        },
        "category": "simple",
        "containerId": null,
        "damage": {
            "damageType": "bludgeoning",
            "dice": 1,
            "die": "d4",
            "value": ""
        },
        "description": {
            "value": "<p>Moss and winding vines give this gnarled staff of wild wood a vibrant green tinge. You created this staff to aid you in speaking to the plants you met on your adventure and beseeching them to come to your aid.</p>\n<hr />\n<p><strong>Activate</strong> Cast a Spell</p>\n<p><strong>Effect</strong> You expend a number of charges from the staff to cast a spell from its list.</p>\n<ul>\n<li><strong>Cantrip</strong> <em>@Compendium[pf2e.spells-srd.Tanglefoot]{Tanglefoot}</em></li>\n<li><strong>1st</strong> <em>@Compendium[pf2e.spells-srd.Protector Tree]{Protector Tree}</em> , <em>@Compendium[pf2e.spells-srd.Shillelagh]{Shillelagh}</em></li>\n<li><strong>2nd</strong> <em>@Compendium[pf2e.spells-srd.Entangle]{Entangle}</em>, <em>@Compendium[pf2e.spells-srd.Shape Wood]{Shape Wood}</em></li>\n<li><strong>3rd</strong> <em>@Compendium[pf2e.spells-srd.Tree Shape]{Tree Shape}</em>, <em>@Compendium[pf2e.spells-srd.Wall of Thorns]{Wall of Thorns}</em></li>\n<li><strong>4th</strong> <em>@Compendium[pf2e.spells-srd.Barkskin]{Barkskin}</em>, <em>@Compendium[pf2e.spells-srd.Speak with Plants]{Speak with Plants}</em><hr /><strong>Craft Requirements</strong> Supply one casting of all listed levels of all listed spells.</li>\n</ul>"
        },
        "equippedBulk": {
            "value": ""
        },
        "group": "club",
        "hardness": 0,
        "hp": {
            "brokenThreshold": 0,
            "max": 0,
            "value": 0
        },
        "level": {
            "value": 11
        },
        "negateBulk": {
            "value": "0"
        },
        "potencyRune": {
            "value": 0
        },
        "preciousMaterial": {
            "value": null
        },
        "preciousMaterialGrade": {
            "value": null
        },
        "price": {
            "value": {
                "gp": 1400
            }
        },
        "property1": {
            "critDamage": "",
            "critDamageType": "",
            "critDice": 0,
            "critDie": "",
            "criticalConditionType": "",
            "criticalConditionValue": null,
            "damageType": "",
            "dice": 0,
            "die": "",
            "strikeConditionType": "",
            "strikeConditionValue": null,
            "value": ""
        },
        "propertyRune1": {
            "value": null
        },
        "propertyRune2": {
            "value": null
        },
        "propertyRune3": {
            "value": null
        },
        "propertyRune4": {
            "value": null
        },
        "quantity": 1,
        "range": null,
        "reload": {
            "value": ""
        },
        "rules": [],
        "size": "med",
        "source": {
            "value": "Pathfinder Secrets of Magic"
        },
        "specific": {
            "value": false
        },
        "splashDamage": {
            "value": 0
        },
        "stackGroup": null,
        "strikingRune": {
            "value": ""
        },
        "traits": {
            "custom": "",
            "rarity": "common",
            "value": [
                "magical",
                "plant",
                "staff",
                "transmutation",
                "two-hand-d8"
            ]
        },
        "usage": {
            "value": "held-in-one-hand"
        },
        "weight": {
            "value": "1"
        }
    },
    "img": "systems/pf2e/icons/equipment/staves/staff-of-natures-cunning.webp",
    "name": "Staff of Nature's Cunning (Greater)",
    "type": "weapon"
}
