{
    "_id": "0Bp6uVAX4AvjhsOI",
    "data": {
        "baseItem": null,
        "containerId": "null",
        "description": {
            "value": "<p>This elegant hooded lantern is made from onyx-black metal. In dim light, flecks of white metal speckled within the lantern's housing resemble stars in a night sky. The lantern uses oil as a standard hooded lantern, except that any light the lantern emits is converted into magical light similar to moonlight. This magical moonlight is always dim light.</p>\n<hr />\n<p><strong>Activate</strong> <span class=\"pf2-icon\">1</span> envision</p>\n<p><strong>Effect</strong> You concentrate on the lantern's light and reduce or increase its radius. The light can have a minimum radius of 5 feet and a maximum radius equal to quadruple the light's standard radius.</p>\n<hr />\n<p><strong>Activate</strong> <span class=\"pf2-icon\">2</span> envision, Interact</p>\n<p><strong>Frequency</strong> once per day</p>\n<p><strong>Effect</strong> You raise the lantern and unleash a beam of powerful moonlight, targeting a darkness effect within 60 feet. The lantern attempts to counteract the effect with a counteract modifier of [[/r {1d20+28} #Twilight Lantern (Major)]]{+28}.</p>"
        },
        "equippedBulk": {
            "value": ""
        },
        "hardness": 0,
        "hp": {
            "brokenThreshold": 0,
            "max": 0,
            "value": 0
        },
        "level": {
            "value": 18
        },
        "negateBulk": {
            "value": "0"
        },
        "preciousMaterial": {
            "value": null
        },
        "preciousMaterialGrade": {
            "value": null
        },
        "price": {
            "value": {
                "gp": 18750
            }
        },
        "quantity": 1,
        "rules": [],
        "size": "med",
        "source": {
            "value": "Pathfinder #172: Secrets of the Temple-City"
        },
        "stackGroup": null,
        "traits": {
            "custom": "",
            "rarity": "uncommon",
            "value": []
        },
        "usage": {
            "value": "held-in-one-hand"
        },
        "weight": {
            "value": "L"
        }
    },
    "img": "systems/pf2e/icons/default-icons/equipment.svg",
    "name": "Twilight Lantern (Major)",
    "type": "equipment"
}
