{
    "_id": "SCkQb4QdFWkATiby",
    "data": {
        "baseItem": null,
        "containerId": null,
        "description": {
            "value": "<p>A vanishing wayfinder is crafted of ivory chased with gold and silver. It has the usual functions of a @Compendium[pf2e.equipment-srd.Wayfinder]{Wayfinder} and the following additional activation.</p>\n<p><strong>Activate</strong> <span class=\"pf2-icon\">D</span> command, Interact</p>\n<p><strong>Frequency</strong> once per day</p>\n<p><strong>Effect</strong> You turn the wayfinder in a circle while invoking its command word, gaining the effects of a 2nd-level <em>@Compendium[pf2e.spells-srd.Invisibility]{Invisibility}</em> spell for 5 minutes.</p>"
        },
        "equippedBulk": {
            "value": ""
        },
        "hardness": 0,
        "hp": {
            "brokenThreshold": 0,
            "max": 0,
            "value": 0
        },
        "level": {
            "value": 5
        },
        "negateBulk": {
            "value": ""
        },
        "preciousMaterial": {
            "value": ""
        },
        "preciousMaterialGrade": {
            "value": ""
        },
        "price": {
            "value": {
                "gp": 150
            }
        },
        "quantity": 1,
        "rules": [
            {
                "domain": "skill-check",
                "key": "RollOption",
                "option": "compass-in-possession",
                "requiresEquipped": false
            }
        ],
        "size": "med",
        "source": {
            "value": "Pathfinder Lost Omens: Character Guide"
        },
        "stackGroup": null,
        "traits": {
            "custom": "",
            "rarity": "uncommon",
            "value": [
                "evocation",
                "illusion",
                "invested",
                "magical"
            ]
        },
        "usage": {
            "value": "worn"
        },
        "weight": {
            "value": "-"
        }
    },
    "img": "systems/pf2e/icons/equipment/worn-items/other-worn-items/shining-wayfinder.webp",
    "name": "Vanishing Wayfinder",
    "type": "equipment"
}
