{
    "_id": "9YtYO8u5UOg4q64Y",
    "data": {
        "baseItem": null,
        "containerId": null,
        "description": {
            "value": "<p>The handle of this wand is a 5-inch-long piece of rosewood, but most of its length is a pair of twisted spider legs covered in gossamer webbing.</p>\n<p><strong>Activate</strong> Cast a spell</p>\n<p><strong>Frequency</strong> Once per day, plus overcharge</p>\n<p><strong>Effect</strong> You cast <em>@Compendium[pf2e.spells-srd.Web]{Web}</em> at 4th level, but the strands of webbing are envenomed. Any creature that fails their Athletics check or Reflex save to navigate the web takes [[/r 2d6]] poison damage and @Localize[PF2E.PersistentDamage.Poison1d6.success].</p>\n<p><strong>Craft Requirements</strong> Supply a casting of web at 4th-level.</p>"
        },
        "equippedBulk": {
            "value": ""
        },
        "hardness": 0,
        "hp": {
            "brokenThreshold": 0,
            "max": 0,
            "value": 0
        },
        "level": {
            "value": 11
        },
        "negateBulk": {
            "value": "0"
        },
        "preciousMaterial": {
            "value": ""
        },
        "preciousMaterialGrade": {
            "value": ""
        },
        "price": {
            "value": {
                "gp": 1400
            }
        },
        "quantity": 1,
        "rules": [],
        "size": "med",
        "source": {
            "value": "Pathfinder Advanced Player's Guide"
        },
        "stackGroup": null,
        "traits": {
            "custom": "",
            "rarity": "common",
            "value": [
                "conjuration",
                "magical",
                "poison",
                "wand"
            ]
        },
        "usage": {
            "value": "held-in-one-hand"
        },
        "weight": {
            "value": "L"
        }
    },
    "img": "systems/pf2e/icons/equipment/wands/specialty-wands/wand-of-the-snowfields.webp",
    "name": "Wand of the Spider (4th-Level Spell)",
    "type": "equipment"
}
