{
    "_id": "pNPUo3lDaw7ZoDek",
    "data": {
        "attributes": {
            "ac": {
                "value": 21
            },
            "hardness": 10,
            "hasHealth": true,
            "hp": {
                "details": "",
                "max": 40,
                "temp": 0,
                "value": 40
            },
            "stealth": {
                "details": "<p>(expert)</p>",
                "value": 13
            }
        },
        "creatureType": "",
        "details": {
            "description": "<p>The frame splinters as the door flings open, the force hitting those nearby.</p>",
            "disable": "<p>@Check[type:athletics|dc:20|name:Hold the Door Shut|traits:chaotic,hazard,magical,trap] (trained) to hold the door shut against the force, or @Check[type:thievery|dc:21|name:Relieve Door Pressure|traits:chaotic,hazard,magical,trap] (trained) to deftly relieve pressure from the door.</p>",
            "isComplex": false,
            "level": {
                "value": 3
            },
            "reset": "",
            "routine": ""
        },
        "saves": {
            "fortitude": {
                "saveDetail": "",
                "value": 12
            },
            "reflex": {
                "saveDetail": "",
                "value": 13
            },
            "will": {
                "saveDetail": "",
                "value": 0
            }
        },
        "source": {
            "value": "Pathfinder Society Scenario #2-09: The Seven Secrets of Dacilane Academy"
        },
        "statusEffects": [],
        "traits": {
            "ci": [],
            "di": {
                "custom": "",
                "selected": {},
                "value": [
                    "critical-hits",
                    "object-immunities",
                    "precision"
                ]
            },
            "dr": [],
            "dv": [],
            "rarity": "common",
            "size": {
                "value": "med"
            },
            "traits": {
                "custom": "",
                "value": [
                    "chaotic",
                    "magical",
                    "trap"
                ]
            }
        }
    },
    "flags": {},
    "img": "systems/pf2e/icons/default-icons/hazard.svg",
    "items": [
        {
            "_id": "Xk8bQOva3Sg0jmKD",
            "data": {
                "actionCategory": {
                    "value": "offensive"
                },
                "actionType": {
                    "value": "reaction"
                },
                "actions": {
                    "value": null
                },
                "deathNote": false,
                "description": {
                    "value": "<p><strong>Trigger</strong> A creature touches any part of the door.</p>\n<p><strong>Effect</strong> The door flies open with incredible force. The triggering creature must attempt a @Check[type:reflex|dc:22|traits:damaging-effect,chaotic,hazard,trap,magical] save as the door explodes outward into them, which deals [[/r {5d8}[bludgeoning]]]{5d8 bludgeoning damage}.</p>\n<hr />\n<p><strong>Critical Success</strong> The creature takes no damage.</p>\n<p><strong>Success</strong> The creature takes half damage.</p>\n<p><strong>Failure</strong> The creature takes full damage and is knocked 10 feet toward the window behind them.</p>\n<p><strong>Critical Failure</strong> The creature takes full damage and is knocked 20 feet toward the window. The window shatters and the PC falls 5 feet before colliding with the ground, taking an additional [[/r {2d6}[piercing]]]{2d6 piercing damage} from passing through the broken glass.</p>"
                },
                "requirements": {
                    "value": ""
                },
                "rules": [],
                "slug": null,
                "source": {
                    "value": ""
                },
                "traits": {
                    "custom": "",
                    "rarity": "common",
                    "value": []
                },
                "trigger": {
                    "value": ""
                }
            },
            "flags": {},
            "img": "systems/pf2e/icons/actions/Reaction.webp",
            "name": "Slam",
            "sort": 0,
            "type": "action"
        }
    ],
    "name": "Chaotic Door (3-4)",
    "token": {
        "disposition": 0,
        "height": 1,
        "img": "systems/pf2e/icons/default-icons/hazard.svg",
        "name": "Chaotic Door",
        "width": 1
    },
    "type": "hazard"
}
