{
    "_id": "XVda3dqZWi21we2j",
    "data": {
        "abilities": {
            "cha": {
                "mod": 3
            },
            "con": {
                "mod": 5
            },
            "dex": {
                "mod": 2
            },
            "int": {
                "mod": 1
            },
            "str": {
                "mod": 5
            },
            "wis": {
                "mod": 3
            }
        },
        "attributes": {
            "ac": {
                "details": "",
                "value": 20
            },
            "allSaves": {
                "value": ""
            },
            "hp": {
                "details": "negative healing",
                "max": 72,
                "temp": 0,
                "value": 72
            },
            "initiative": {
                "ability": "perception"
            },
            "perception": {
                "value": 11
            },
            "speed": {
                "otherSpeeds": [],
                "value": "25"
            }
        },
        "details": {
            "alignment": {
                "value": "CE"
            },
            "blurb": "",
            "creatureType": "",
            "level": {
                "value": 4
            },
            "nethysUrl": "",
            "privateNotes": "",
            "publicNotes": "",
            "source": {
                "value": "Pathfinder Society: Season 2"
            }
        },
        "resources": {},
        "saves": {
            "fortitude": {
                "saveDetail": "",
                "value": 13
            },
            "reflex": {
                "saveDetail": "",
                "value": 8
            },
            "will": {
                "saveDetail": "",
                "value": 11
            }
        },
        "traits": {
            "attitude": {
                "value": "hostile"
            },
            "ci": [],
            "di": {
                "custom": "",
                "value": [
                    "death-effects",
                    "disease",
                    "paralyzed",
                    "poison",
                    "unconscious"
                ]
            },
            "dr": [],
            "dv": [],
            "languages": {
                "custom": "",
                "selected": [],
                "value": [
                    "common",
                    "necril"
                ]
            },
            "rarity": "uncommon",
            "senses": {
                "value": "darkvision"
            },
            "size": {
                "value": "sm"
            },
            "traits": {
                "custom": "",
                "value": [
                    "undead",
                    "wight"
                ]
            }
        }
    },
    "flags": {},
    "img": "systems/pf2e/icons/default-icons/npc.svg",
    "items": [
        {
            "_id": "4worW7L9UGQv8B6E",
            "data": {
                "attack": {
                    "value": ""
                },
                "attackEffects": {
                    "custom": "",
                    "value": [
                        "drain-life"
                    ]
                },
                "bonus": {
                    "value": 13
                },
                "damageRolls": {
                    "euovysh17t93oau6drwv": {
                        "damage": "2d4+5",
                        "damageType": "slashing"
                    }
                },
                "description": {
                    "value": ""
                },
                "rules": [],
                "slug": null,
                "source": {
                    "value": ""
                },
                "traits": {
                    "custom": "",
                    "rarity": "common",
                    "value": [
                        "coldIron"
                    ]
                },
                "weaponType": {
                    "value": "melee"
                }
            },
            "flags": {},
            "img": "systems/pf2e/icons/default-icons/melee.svg",
            "name": "Claw",
            "sort": 100000,
            "type": "melee"
        },
        {
            "_id": "NffB3y0RQdK7e7P5",
            "data": {
                "actionCategory": {
                    "value": "interaction"
                },
                "actionType": {
                    "value": "passive"
                },
                "actions": {
                    "value": null
                },
                "deathNote": false,
                "description": {
                    "value": "<p>@Localize[PF2E.NPC.Abilities.Glossary.Darkvision]</p>"
                },
                "requirements": {
                    "value": ""
                },
                "rules": [],
                "slug": "darkvision",
                "source": {
                    "value": ""
                },
                "traits": {
                    "custom": "",
                    "rarity": "common",
                    "value": []
                },
                "trigger": {
                    "value": ""
                },
                "weapon": {
                    "value": ""
                }
            },
            "flags": {
                "core": {
                    "sourceId": "Compendium.pf2e.bestiary-ability-glossary-srd.qCCLZhnp2HhP3Ex6"
                }
            },
            "img": "systems/pf2e/icons/actions/Passive.webp",
            "name": "Darkvision",
            "sort": 200000,
            "type": "action"
        },
        {
            "_id": "VOH1f4L66PlzFvAf",
            "data": {
                "actionCategory": {
                    "value": "defensive"
                },
                "actionType": {
                    "value": "passive"
                },
                "actions": {
                    "value": null
                },
                "deathNote": false,
                "description": {
                    "value": "<p>@Localize[PF2E.NPC.Abilities.Glossary.NegativeHealing]</p>"
                },
                "requirements": {
                    "value": ""
                },
                "rules": [
                    {
                        "key": "ActiveEffectLike",
                        "mode": "override",
                        "path": "data.attributes.hp.negativeHealing",
                        "value": true
                    }
                ],
                "slug": "negative-healing",
                "source": {
                    "value": ""
                },
                "traits": {
                    "custom": "",
                    "rarity": "common",
                    "value": []
                },
                "trigger": {
                    "value": ""
                },
                "weapon": {
                    "value": ""
                }
            },
            "flags": {
                "core": {
                    "sourceId": "Compendium.pf2e.bestiary-ability-glossary-srd.TTCw5NusiSSkJU1x"
                }
            },
            "img": "systems/pf2e/icons/actions/Passive.webp",
            "name": "Negative Healing",
            "sort": 300000,
            "type": "action"
        },
        {
            "_id": "f42OKdvtvGvdcunj",
            "data": {
                "actionCategory": {
                    "value": "offensive"
                },
                "actionType": {
                    "value": "passive"
                },
                "actions": {
                    "value": null
                },
                "deathNote": false,
                "description": {
                    "value": "<p>When the ragewight damages a living creature with its claw Strike, the ragewight gains 3 temporary Hit Points and the creature must succeed at a @Check[type:fortitude|dc:18] save or become @Compendium[pf2e.conditionitems.Drained]{Drained 1}. Further damage dealt to the creature by the ragewight increases the amount of drain by 1 on a failed save, to a maximum of @Compendium[pf2e.conditionitems.Drained]{Drained 4}.</p>"
                },
                "requirements": {
                    "value": ""
                },
                "rules": [],
                "slug": null,
                "source": {
                    "value": ""
                },
                "traits": {
                    "custom": "",
                    "rarity": "common",
                    "value": [
                        "divine",
                        "necromancy"
                    ]
                },
                "trigger": {
                    "value": ""
                },
                "weapon": {
                    "value": ""
                }
            },
            "flags": {},
            "img": "systems/pf2e/icons/actions/Passive.webp",
            "name": "Drain Life",
            "sort": 400000,
            "type": "action"
        },
        {
            "_id": "NsZlYqlD0rycOyOo",
            "data": {
                "actionCategory": {
                    "value": "offensive"
                },
                "actionType": {
                    "value": "reaction"
                },
                "actions": {
                    "value": null
                },
                "deathNote": false,
                "description": {
                    "value": "<p><strong>Trigger</strong> A creature uses a move action to leave a square adjacent to the ragewight</p>\n<p><strong>Effect</strong> The ragewight attempts an Athletics check to @Compendium[pf2e.actionspf2e.Grapple]{Grapple} the target.</p>"
                },
                "requirements": {
                    "value": ""
                },
                "rules": [],
                "slug": null,
                "source": {
                    "value": ""
                },
                "traits": {
                    "custom": "",
                    "rarity": "common",
                    "value": []
                },
                "trigger": {
                    "value": ""
                },
                "weapon": {
                    "value": ""
                }
            },
            "flags": {},
            "img": "systems/pf2e/icons/actions/Reaction.webp",
            "name": "Furious Grab",
            "sort": 500000,
            "type": "action"
        },
        {
            "_id": "P90FbI0EgIg4Jd24",
            "data": {
                "actionCategory": {
                    "value": "offensive"
                },
                "actionType": {
                    "value": "action"
                },
                "actions": {
                    "value": 1
                },
                "deathNote": false,
                "description": {
                    "value": "<p>The ragewight goes into a frenzy, gaining 8 temporary Hit Points. Its Strikes deal 2 additional damage, and it takes a -1 penalty to AC.</p>\n<p>This lasts for 1 minute.</p>\n<hr />\n<p>@Compendium[pf2e.feature-effects.Effect: Rage]{Effect: Rage}</p>"
                },
                "requirements": {
                    "value": ""
                },
                "rules": [
                    {
                        "key": "FlatModifier",
                        "predicate": {
                            "all": [
                                "self:effect:rage"
                            ]
                        },
                        "selector": "ac",
                        "value": -1
                    },
                    {
                        "key": "FlatModifier",
                        "predicate": {
                            "all": [
                                "self:effect:rage"
                            ]
                        },
                        "selector": "strike-damage",
                        "value": 2
                    },
                    {
                        "key": "ActiveEffectLike",
                        "mode": "override",
                        "path": "flags.pf2e.rageTempHP",
                        "value": 8
                    }
                ],
                "slug": null,
                "source": {
                    "value": ""
                },
                "traits": {
                    "custom": "",
                    "rarity": "common",
                    "value": []
                },
                "trigger": {
                    "value": ""
                },
                "weapon": {
                    "value": ""
                }
            },
            "flags": {},
            "img": "systems/pf2e/icons/actions/OneAction.webp",
            "name": "Rage",
            "sort": 600000,
            "type": "action"
        },
        {
            "_id": "LUR3LU41YQgmVhQw",
            "data": {
                "actionCategory": {
                    "value": "offensive"
                },
                "actionType": {
                    "value": "passive"
                },
                "actions": {
                    "value": null
                },
                "deathNote": false,
                "description": {
                    "value": "<p>A living humanoid slain by a ragewight's claw Strike rises as a spawned wight after [[/br 1d4 #rounds]]{1d4 rounds}. This spawned wight is under the command of the ragewight that killed it. It doesn't have the drain life or wight spawn abilities and is @Compendium[pf2e.conditionitems.Clumsy]{Clumsy 2} for as long as it is a spawned wight. If the creator of the wight spawn dies, the wight spawn becomes a full-fledged, autonomous wight; it regains its free will, gains the drain life and wight spawn abilities, and is no longer clumsy.</p>"
                },
                "requirements": {
                    "value": ""
                },
                "rules": [],
                "slug": null,
                "source": {
                    "value": ""
                },
                "traits": {
                    "custom": "",
                    "rarity": "common",
                    "value": [
                        "divine",
                        "necromancy"
                    ]
                },
                "trigger": {
                    "value": ""
                },
                "weapon": {
                    "value": ""
                }
            },
            "flags": {},
            "img": "systems/pf2e/icons/actions/Passive.webp",
            "name": "Wight Spawn",
            "sort": 700000,
            "type": "action"
        },
        {
            "_id": "KshcrcCu6RJBBKYg",
            "data": {
                "description": {
                    "value": ""
                },
                "mod": {
                    "value": 13
                },
                "proficient": {
                    "value": 0
                },
                "rules": [],
                "slug": null,
                "source": {
                    "value": ""
                },
                "traits": {
                    "custom": "",
                    "rarity": "common",
                    "value": []
                }
            },
            "flags": {},
            "img": "systems/pf2e/icons/default-icons/lore.svg",
            "name": "Athletics",
            "sort": 800000,
            "type": "lore"
        },
        {
            "_id": "myrVlXNqGxkZox9I",
            "data": {
                "description": {
                    "value": ""
                },
                "mod": {
                    "value": 11
                },
                "proficient": {
                    "value": 0
                },
                "rules": [],
                "slug": null,
                "source": {
                    "value": ""
                },
                "traits": {
                    "custom": "",
                    "rarity": "common",
                    "value": []
                }
            },
            "flags": {},
            "img": "systems/pf2e/icons/default-icons/lore.svg",
            "name": "Intimidation",
            "sort": 900000,
            "type": "lore"
        },
        {
            "_id": "CPOKmfTptT9H6sb5",
            "data": {
                "description": {
                    "value": ""
                },
                "mod": {
                    "value": 8
                },
                "proficient": {
                    "value": 0
                },
                "rules": [],
                "slug": null,
                "source": {
                    "value": ""
                },
                "traits": {
                    "custom": "",
                    "rarity": "common",
                    "value": []
                }
            },
            "flags": {},
            "img": "systems/pf2e/icons/default-icons/lore.svg",
            "name": "Stealth",
            "sort": 1000000,
            "type": "lore"
        }
    ],
    "name": "Ragewight (3-4)",
    "token": {
        "disposition": -1,
        "height": 1,
        "img": "systems/pf2e/icons/default-icons/npc.svg",
        "name": "Ragewight",
        "width": 1
    },
    "type": "npc"
}
