{
    "_id": "7TYLgIMDGgUfbgGY",
    "data": {
        "actionCategory": {
            "value": "interaction"
        },
        "actionType": {
            "value": "action"
        },
        "actions": {
            "value": 1
        },
        "deathNote": false,
        "description": {
            "value": "<p>The lich changes their appearance to look as they did in life. This effect lasts indefinitely, but if the lich takes damage, their rotten flesh beneath becomes visible until this ability is used again.</p>"
        },
        "requirements": {
            "value": ""
        },
        "rules": [],
        "source": {
            "value": "Pathfinder Book of the Dead"
        },
        "traits": {
            "custom": "",
            "rarity": "common",
            "value": [
                "arcane",
                "transmutation"
            ]
        },
        "trigger": {
            "value": ""
        }
    },
    "img": "systems/pf2e/icons/actions/OneAction.webp",
    "name": "(Lich) Mask Death",
    "type": "action"
}
