{
    "_id": "ZRHUnhaHK2w1el8f",
    "data": {
        "actionCategory": {
            "value": "defensive"
        },
        "actionType": {
            "value": "passive"
        },
        "actions": {
            "value": null
        },
        "deathNote": false,
        "description": {
            "value": "<p>During the process to create the skeleton, it was covered with several layers of an alchemical lacquer, giving its bones a golden hue and granting added protection. The skeleton gains acid resistance 5 and a +2 status bonus to saves against effects that age or erode the target.</p>"
        },
        "requirements": {
            "value": ""
        },
        "rules": [
            {
                "key": "Resistance",
                "type": "acid",
                "value": 5
            },
            {
                "key": "FlatModifier",
                "label": "Against Effects that Age or Erode the Target",
                "predicate": {
                    "all": [
                        "lacquered"
                    ]
                },
                "selector": "saving-throw",
                "type": "status",
                "value": 2
            }
        ],
        "source": {
            "value": "Pathfinder Book of the Dead"
        },
        "traits": {
            "custom": "",
            "rarity": "common",
            "value": []
        },
        "trigger": {
            "value": ""
        }
    },
    "img": "systems/pf2e/icons/actions/Passive.webp",
    "name": "(Skeleton) Lacquered",
    "type": "action"
}
