{
    "_id": "SMF1hTWPHtmlS8Cd",
    "data": {
        "actionCategory": {
            "value": "offensive"
        },
        "actionType": {
            "value": "action"
        },
        "actions": {
            "value": 1
        },
        "deathNote": false,
        "description": {
            "value": "<p><strong>Requirements</strong> You're unarmored and wielding a simple firearm, bayonet, or reinforced stock</p>\n<p><strong>Effect</strong> You enter a specialized stance for a unique martial art centered around the use of simple firearms. While in this stance, the only Strikes you can make are those using bayonets, reinforced stocks, and simple firearms. You can use Flurry of Blows with these weapons. You can use your other monk feats or monk abilities that normally require unarmed attacks with bayonets and reinforced stocks, so long as the feat or ability doesn't require a single, specific Strike. You can also use them with simple firearms when attacking within half the first range increment.</p>"
        },
        "requirements": {
            "value": ""
        },
        "rules": [],
        "source": {
            "value": "Pathfinder Guns & Gears"
        },
        "traits": {
            "custom": "",
            "rarity": "common",
            "value": [
                "stance"
            ]
        },
        "trigger": {
            "value": ""
        }
    },
    "img": "systems/pf2e/icons/actions/OneAction.webp",
    "name": "Bullet Dancer Stance",
    "type": "action"
}
