{
    "_id": "hi56uHG1aAb84Zzu",
    "data": {
        "actionCategory": {
            "value": "interaction"
        },
        "actionType": {
            "value": "reaction"
        },
        "actions": {
            "value": null
        },
        "deathNote": false,
        "description": {
            "value": "<p><strong>Trigger</strong> A creature that you can see uses a mental effect against you</p>\n<p><strong>Effect</strong> The triggering creature must attempt a Will save, which has the following effects.</p>\n<hr />\n<p><strong>Success</strong> The creature is unaffected.</p>\n<p><strong>Failure</strong> The creature is @Compendium[pf2e.conditionitems.Frightened]{Frightened 2}, and you gain a +2 status bonus to your saving throw or other defense against the triggering mental effect.</p>\n<p><strong>Critical Failure</strong> The creature is frightened 2, and you're unaffected by the triggering mental effect.</p>"
        },
        "requirements": {
            "value": ""
        },
        "rules": [],
        "source": {
            "value": "Pathfinder Secrets of Magic"
        },
        "traits": {
            "custom": "",
            "rarity": "common",
            "value": [
                "concentrate",
                "emotion",
                "fear",
                "mental"
            ]
        },
        "trigger": {
            "value": ""
        },
        "weapon": {
            "value": ""
        }
    },
    "img": "systems/pf2e/icons/actions/Reaction.webp",
    "name": "Fight with Fear",
    "type": "action"
}
