{
    "_id": "06frwOOuo4HJtivl",
    "data": {
        "actionCategory": {
            "value": "offensive"
        },
        "actionType": {
            "value": "action"
        },
        "actions": {
            "value": 2
        },
        "deathNote": false,
        "description": {
            "value": "<p>Your eidolon channels its anger into a furious attack. It makes a melee Strike. This counts as two attacks when calculating your multiple attack penalty. If this Strike hits, your eidolon deals an extra die of weapon damage and gains a +1 circumstance bonus to the damage roll.</p>\n<p>If you're at least 10th level, increase this to two extra dice with a +2 circumstance bonus, and if you're at least 18th level, increase it to three extra dice with a +3 circumstance bonus.</p>"
        },
        "requirements": {
            "value": ""
        },
        "rules": [
            {
                "key": "DamageDice",
                "predicate": {
                    "all": [
                        "melee",
                        "furious-strike"
                    ]
                },
                "selector": "strike-damage",
                "value": {
                    "brackets": [
                        {
                            "end": 9,
                            "value": {
                                "diceNumber": 1
                            }
                        },
                        {
                            "end": 17,
                            "start": 10,
                            "value": {
                                "diceNumber": 2
                            }
                        },
                        {
                            "start": 18,
                            "value": {
                                "diceNumber": 3
                            }
                        }
                    ]
                }
            },
            {
                "domain": "damage-roll",
                "key": "RollOption",
                "option": "furious-strike",
                "toggleable": true
            },
            {
                "key": "FlatModifier",
                "predicate": {
                    "all": [
                        "furious-strike"
                    ]
                },
                "selector": "strike-damage",
                "type": "circumstance",
                "value": {
                    "brackets": [
                        {
                            "end": 9,
                            "value": 1
                        },
                        {
                            "end": 17,
                            "start": 10,
                            "value": 2
                        },
                        {
                            "start": 18,
                            "value": 3
                        }
                    ]
                }
            }
        ],
        "source": {
            "value": "Pathfinder Secrets of Magic"
        },
        "traits": {
            "custom": "",
            "rarity": "common",
            "value": [
                "eidolon"
            ]
        },
        "trigger": {
            "value": ""
        },
        "weapon": {
            "value": ""
        }
    },
    "img": "systems/pf2e/icons/actions/TwoActions.webp",
    "name": "Furious Strike",
    "type": "action"
}
