{
    "_id": "EfjoIuDmtUn4yiow",
    "data": {
        "actionCategory": {
            "value": "offensive"
        },
        "actionType": {
            "value": "reaction"
        },
        "actions": {
            "value": null
        },
        "deathNote": false,
        "description": {
            "value": "<p><strong>Trigger</strong> A foe within your reach critically fails a Strike against you</p>\n<hr />\n<p>You take advantage of an opening from your enemy's fumbled attack. You either make a melee Strike against the triggering foe or attempt to @Compendium[pf2e.actionspf2e.Disarm]{Disarm} it of the weapon it used for the Strike.</p>"
        },
        "requirements": {
            "value": ""
        },
        "rules": [],
        "source": {
            "value": "Pathfinder Advanced Player's Guide"
        },
        "traits": {
            "custom": "",
            "rarity": "common",
            "value": [
                "swashbuckler"
            ]
        },
        "trigger": {
            "value": ""
        },
        "weapon": {
            "value": ""
        }
    },
    "img": "systems/pf2e/icons/actions/Reaction.webp",
    "name": "Opportune Riposte",
    "type": "action"
}
