{
    "_id": "FkfWKq9jhhPzKAbb",
    "data": {
        "actionCategory": {
            "value": "offensive"
        },
        "actionType": {
            "value": "free"
        },
        "actions": {
            "value": null
        },
        "deathNote": false,
        "description": {
            "value": "<p><strong>Trigger</strong> You use @Compendium[pf2e.feats-srd.Orc Ferocity]{Orc Ferocity}</p>\n<hr />\n<p>You lash out viciously even as you fend off death. Make a single melee Strike. If this Strike brings a foe to 0 Hit Points, this activation of Orc Ferocity doesn't count against its frequency.</p>"
        },
        "requirements": {
            "value": ""
        },
        "rules": [],
        "source": {
            "value": "Pathfinder Advanced Player's Guide"
        },
        "traits": {
            "custom": "",
            "rarity": "common",
            "value": []
        },
        "trigger": {
            "value": ""
        },
        "weapon": {
            "value": ""
        }
    },
    "img": "systems/pf2e/icons/actions/FreeAction.webp",
    "name": "Rampaging Ferocity",
    "type": "action"
}
