{
    "_id": "gxtq81VAhpmNvEgA",
    "data": {
        "actionCategory": {
            "value": "interaction"
        },
        "actionType": {
            "value": "action"
        },
        "actions": {
            "value": 1
        },
        "deathNote": false,
        "description": {
            "value": "<p>You attempt to manipulate the magical essence of a ley line that you're aware of within 30 feet. The GM determines the DC based on the hard DC for the ley line's level.</p>\n<hr />\n<p><strong>Critical Success</strong> You gain the ley line's benefits until the end of your next turn.</p>\n<p><strong>Success</strong> You gain the ley line's benefits until the end of your turn.</p>\n<p><strong>Failure</strong> You take mental damage equal to 1d6 × the ley line's level. You can't Tap the Ley Line again for 1 hour.</p>\n<p><strong>Critical Failure</strong> As failure, and you're subject to the ley line's backlash effect. You can't Tap the Ley Line again for 24 hours.</p>"
        },
        "requirements": {
            "value": ""
        },
        "rules": [],
        "source": {
            "value": "Pathfinder Secrets of Magic"
        },
        "traits": {
            "custom": "",
            "rarity": "common",
            "value": [
                "concentrate"
            ]
        },
        "trigger": {
            "value": ""
        },
        "weapon": {
            "value": ""
        }
    },
    "img": "systems/pf2e/icons/actions/OneAction.webp",
    "name": "Tap Ley Line",
    "type": "action"
}
