{
    "_id": "Z8aa6afUterlfh5i",
    "data": {
        "actionCategory": {
            "value": "interaction"
        },
        "actionType": {
            "value": "passive"
        },
        "actions": {
            "value": null
        },
        "deathNote": false,
        "description": {
            "value": "<p>You progress toward moving into an adjacent hex. In open terrain, like a plain, using 1 Travel activity allows you to move from one hex to an adjacent hex. Traversing a hex with difficult terrain (such as a typical forest or desert) requires 2 Travel activities, and hexes of greater difficult terrain (such as a steep mountain or typical swamp) require 3 Travel activities to traverse. Traveling along a road uses a terrain type one step better than the surrounding terrain. For example, if you are traveling on a road over a mountain pass, the terrain is difficult terrain instead of greater difficult terrain.</p>\n<p>The Travel activity assumes you are walking overland. If you are flying or traveling on water, most hexes are open terrain, though there are exceptions. Flying into storms or high winds count as difficult or greater difficult terrain. Traveling down a river is open terrain, but traveling upriver is difficult or greater difficult terrain.</p>"
        },
        "requirements": {
            "value": ""
        },
        "rules": [],
        "source": {
            "value": "Pathfinder Gamemastery Guide"
        },
        "traits": {
            "custom": "",
            "rarity": "common",
            "value": [
                "move"
            ]
        },
        "trigger": {
            "value": ""
        }
    },
    "flags": {},
    "img": "systems/pf2e/icons/actions/Passive.webp",
    "name": "Travel",
    "type": "action"
}
