{
    "_id": "wkDOeK7ENz1ra8IC",
    "data": {
        "ability": [
            "dex",
            "con"
        ],
        "alignment": {
            "follower": [
                "CG",
                "CN",
                "CE"
            ],
            "own": "CN"
        },
        "description": {
            "value": "<p>Once nothing more than a powerful spirit of water with the ability to manipulate sea monsters, Besmara grew slowly in power over the centuries from sacrifices made by seafaring people. After defeating and consuming rival spirits of battle, gold, and wood, she became a minor god of piracy, strife, and sea monsters.</p>\n<p>Besmara, the Pirate Queen, cuts a brash and bold figure, as she often is depicted wearing buccaneer apparel consisting of loose-fitting, eye-catching clothing and black boots, and her hair is wind-tossed on even the calmest day. She and her followers adhere to a simple code of greed: take what you desire, no matter who it might belong to. Despite this, Besmara and her worshippers are generally loyal to one another, knowing that while on the waves raiding ships for treasure, a pirate crew can survive only if its members trust one another.</p>\n<p><strong>Edicts</strong> sail the seas, stay loyal to captain and crew, take what you want</p>\n<p><strong>Anathema</strong> betray shipmates, forsake piracy, settle on land</p>\n<p><strong>Areas of Concern</strong> piracy, sea monsters, and strife</p>"
        },
        "domains": {
            "alternate": [],
            "primary": [
                "destruction",
                "trickery",
                "water",
                "wealth"
            ]
        },
        "font": [
            "harm",
            "heal"
        ],
        "rules": [],
        "skill": "ath",
        "source": {
            "value": "Pathfinder Lost Omens: Gods & Magic"
        },
        "spells": {
            "1": "Compendium.pf2e.spells-srd.jfVCuOpzC6mUrf6f",
            "3": "Compendium.pf2e.spells-srd.RvBlSIJmxiqfCpR9",
            "5": "Compendium.pf2e.spells-srd.z2mfh3oPnfYqXflY"
        },
        "weapons": [
            "rapier"
        ]
    },
    "flags": {},
    "img": "systems/pf2e/icons/deity/Besmara.webp",
    "name": "Besmara",
    "type": "deity"
}
