{
    "_id": "6O4UGWcYERDEugzk",
    "data": {
        "ability": [
            "con",
            "cha"
        ],
        "alignment": {
            "follower": [
                "LE",
                "NE",
                "CE"
            ],
            "own": "NE"
        },
        "description": {
            "value": "<p><strong>Fumeiyoshi</strong> is a Tian Xia deity most often associated with the undead and graves, although he is also the patron deity of the evil oni.</p>\n<p><strong>Edicts</strong> Punish those who have good fortune they don't deserve, devour the pleasures of the living, encourage resentment, make graveyards supernaturally unsafe</p>\n<p><strong>Anathema</strong> Pass by food without stealing a bite, allow honor or tradition to prevent you from taking what you want</p>"
        },
        "domains": {
            "alternate": [],
            "primary": [
                "ambition",
                "destruction",
                "earth",
                "undeath"
            ]
        },
        "font": [
            "harm"
        ],
        "rules": [],
        "skill": "itm",
        "source": {
            "value": "Pathfinder Lost Omens: Gods & Magic"
        },
        "spells": {
            "1": "Compendium.pf2e.spells-srd.k34hDOfIIMAxNL4a",
            "2": "Compendium.pf2e.spells-srd.siU9xRlqWXeKT0mH",
            "7": "Compendium.pf2e.spells-srd.wU6hNzK8Yfqdmc8m"
        },
        "weapons": [
            "naginata"
        ]
    },
    "flags": {},
    "img": "systems/pf2e/icons/deity/Fumeiyoshi.webp",
    "name": "Fumeiyoshi",
    "type": "deity"
}
