{
    "_id": "zlJGKpeLBwajP91o",
    "data": {
        "ability": [
            "wis",
            "cha"
        ],
        "alignment": {
            "follower": [
                "NE",
                "CE"
            ],
            "own": "CE"
        },
        "description": {
            "value": "<p>The goddess <strong>Gyronna</strong> is also known as the Angry Hag, and for good reason.</p>\n<p><strong>Edicts</strong> Expose hypocrisy (real or imagined) in others, make other creatures miserable, demand bribes to spare creatures from your torments</p>\n<p><strong>Anathema</strong> Allow others to slight you without retaliation, seek the approval of society, forgive those who have wronged you</p>"
        },
        "domains": {
            "alternate": [],
            "primary": [
                "ambition",
                "nightmares",
                "pain",
                "zeal"
            ]
        },
        "font": [
            "harm"
        ],
        "rules": [],
        "skill": "itm",
        "source": {
            "value": "Pathfinder Lost Omens: Gods & Magic"
        },
        "spells": {
            "1": "Compendium.pf2e.spells-srd.6ZIKB0151LUR19Rw",
            "2": "Compendium.pf2e.spells-srd.Mkbq9xlAUxHUHyR2",
            "6": "Compendium.pf2e.spells-srd.5BbU1V6wGSGbrmRD"
        },
        "weapons": [
            "dagger"
        ]
    },
    "flags": {},
    "img": "systems/pf2e/icons/deity/Gyronna.webp",
    "name": "Gyronna",
    "type": "deity"
}
