{
    "_id": "KIEgpcmHYtFu1dpg",
    "data": {
        "ability": [
            "str",
            "int"
        ],
        "alignment": {
            "follower": [
                "LN",
                "N",
                "NE"
            ],
            "own": "N"
        },
        "description": {
            "value": "<p><strong>Imot</strong> is an agender psychopomp usher born from the guilt and desire for hindsight felt by mortals after a tragedy. It arranges calamities to kill off cultures that overstay their welcome. Imot is compelled to hide clues to every natural disaster using symbolism and equations; these clues induce a subconscious unease in those that do not understand them, and provide insight to those that do (though they usually end up figuring them out too late). For this reason, Imot is concerned with fear (particularly of personal failures) and self-blame for inevitable disasters, and judges souls who died unavoidable deaths.</p>\n<p><strong>Edicts</strong> Search for omens in the natural world, push the boundaries of mathematics, study past disasters</p>\n<p><strong>Anathema</strong> Withhold your understanding of a portent, prevent the destruction of things that cannot be saved</p>"
        },
        "domains": {
            "alternate": [],
            "primary": [
                "death",
                "destruction",
                "fate",
                "glyph"
            ]
        },
        "font": [
            "harm",
            "heal"
        ],
        "rules": [],
        "skill": "occ",
        "source": {
            "value": "Pathfinder Lost Omens: Gods & Magic"
        },
        "spells": {
            "1": "Compendium.pf2e.spells-srd.6ZIKB0151LUR19Rw",
            "2": "Compendium.pf2e.spells-srd.Mkbq9xlAUxHUHyR2",
            "6": "Compendium.pf2e.spells-srd.0XP2XOxT9VSiXFDr"
        },
        "weapons": [
            "shield-boss"
        ]
    },
    "flags": {},
    "img": "systems/pf2e/icons/default-icons/deity.svg",
    "name": "Imot",
    "type": "deity"
}
