{
    "_id": "iKgERiIc8rt3fatf",
    "data": {
        "ability": [],
        "alignment": {
            "follower": [
                "NE",
                "CE"
            ],
            "own": "CE"
        },
        "description": {
            "value": "<p>Nyarlathotep is often venerated by grioths in a bat-like incarnation with a three-lobed burning eye known as the Haunter in the Dark. His symbol is a circle with wing-shaped arms.</p>\n<p><strong>Edicts</strong> Create darkness, encourage authorities to bring the apocalypse</p>\n<p><strong>Anathema</strong> None</p>"
        },
        "domains": {
            "alternate": [],
            "primary": [
                "darkness",
                "knowledge",
                "nightmares",
                "trickery"
            ]
        },
        "font": [
            "harm"
        ],
        "rules": [],
        "skill": "occ",
        "source": {
            "value": "Pathfinder Bestiary 3"
        },
        "spells": {
            "1": "Compendium.pf2e.spells-srd.k34hDOfIIMAxNL4a",
            "4": "Compendium.pf2e.spells-srd.Uqj344bezBq3ESdq",
            "5": "Compendium.pf2e.spells-srd.i1TvBID5QLyXrUCa"
        },
        "weapons": [
            "kukri"
        ]
    },
    "flags": {},
    "img": "systems/pf2e/icons/default-icons/deity.svg",
    "name": "Nyarlathotep (Haunter in the Dark)",
    "type": "deity"
}
