{
    "_id": "Bhxji0kxIbMKqdkw",
    "data": {
        "ability": [
            "str",
            "con"
        ],
        "alignment": {
            "follower": [
                "NE",
                "CE"
            ],
            "own": "CE"
        },
        "description": {
            "value": "<p>Rovagug has no single holy scripture. He has little use for one, for his sole commandment is to destroy, and his followers need no instruction in how to accomplish that. The figurative and literal monsters who worship Rovagug share their myths and legends in secret shrines and hidden caves, calling him the Rough Beast, the Imprisoned King, the Tide of Fangs, the Unmaker, and the Worldbreaker. They tell each other that each life they snuff out, each piece of art they destroy, each work of labor they bring tumbling down puts a crack in the prison that holds their god. Each of their little efforts of destruction adds up and will one day free him, setting him loose to bring about the end of all things.</p>\n<p><strong>Edicts</strong> destroy all things, free Rovagug from his prison</p>\n<p><strong>Anathema</strong> create something new, let material ties restrain you, torture a victim or otherwise delay its destruction</p>\n<p><strong>Areas of Concern</strong> destruction, disaster, and wrath</p>"
        },
        "domains": {
            "alternate": [
                "swarm",
                "void"
            ],
            "primary": [
                "air",
                "destruction",
                "earth",
                "zeal"
            ]
        },
        "font": [
            "harm"
        ],
        "rules": [],
        "skill": "ath",
        "source": {
            "value": "Pathfinder Core Rulebook"
        },
        "spells": {
            "1": "Compendium.pf2e.spells-srd.y6rAdMK6EFlV6U0t",
            "2": "Compendium.pf2e.spells-srd.wzctak6BxOW8xvFV",
            "6": "Compendium.pf2e.spells-srd.r7ihOgKv19eJQnik"
        },
        "weapons": [
            "greataxe"
        ]
    },
    "flags": {},
    "img": "systems/pf2e/icons/deity/Rovagug.webp",
    "name": "Rovagug",
    "type": "deity"
}
