{
    "_id": "BLNXYqvzmLgjMq2p",
    "data": {
        "ability": [
            "str",
            "cha"
        ],
        "alignment": {
            "follower": [
                "CG",
                "CN",
                "CE"
            ],
            "own": "CN"
        },
        "description": {
            "value": "<p><strong>Edicts</strong> Live life freely, drink, play pranks</p>\n<p><strong>Anathema</strong> Refuse a reasonable bet or duel, let social pressure change your behavior</p>"
        },
        "domains": {
            "alternate": [],
            "primary": [
                "indulgence",
                "might",
                "nature",
                "trickery"
            ]
        },
        "font": [
            "harm",
            "heal"
        ],
        "rules": [],
        "skill": "acr",
        "source": {
            "value": "Pathfinder Lost Omens: Gods & Magic"
        },
        "spells": {
            "1": "Compendium.pf2e.spells-srd.Q7QQ91vQtyi1Ux36",
            "3": "Compendium.pf2e.spells-srd.tFKJCPvOQZxKq6ON",
            "4": "Compendium.pf2e.spells-srd.TUj8eugNqAvB1vVR"
        },
        "weapons": [
            "bo-staff"
        ]
    },
    "flags": {},
    "img": "systems/pf2e/icons/deity/Sun%20Wukong.webp",
    "name": "Sun Wukong",
    "type": "deity"
}
