{
    "_id": "uYpxTi4byHc5w78R",
    "data": {
        "ability": [
            "int",
            "wis"
        ],
        "alignment": {
            "follower": [
                "LG",
                "NG",
                "CG",
                "N"
            ],
            "own": "NG"
        },
        "description": {
            "value": "<p>Yuelral is the elven goddess of magic. She is a patron of both divine and arcane magic, but prefers magic that deals with the natural world rather than magic that deals with metal and other artificial things. She is frequently worshiped by jewelers because of her affinity with crystals. These jewelers never cut their crystals, instead embracing their natural beauty. Yuelral is quick to embrace half elves, seeing past their mixed heritage to what lies within.</p>\n<p><strong>Edicts</strong> Practice herbalism, use and enchant gems, encourage and teach magicians and jewelers, preserve elven magic and knowledge</p>\n<p><strong>Anathema</strong> Cut a gem for aesthetic purposes, defile nature, allow the irresponsible use of magic</p>\n<p><strong>Areas of Concern</strong> gems, craft, and magic</p>"
        },
        "domains": {
            "alternate": [],
            "primary": [
                "creation",
                "earth",
                "knowledge",
                "magic"
            ]
        },
        "font": [
            "heal"
        ],
        "rules": [],
        "skill": "arc",
        "source": {
            "value": "Pathfinder Lost Omens: Gods & Magic"
        },
        "spells": {
            "1": "Compendium.pf2e.spells-srd.0uRpypf1Hi7ahvTl",
            "2": "Compendium.pf2e.spells-srd.CXICME10TkEJxz0P",
            "3": "Compendium.pf2e.spells-srd.vh1RpbWfqdNC4L3P",
            "4": "Compendium.pf2e.spells-srd.qvwIwJ9QBihy8R0t",
            "5": "Compendium.pf2e.spells-srd.F1qxaqsEItmBura2",
            "6": "Compendium.pf2e.spells-srd.JbAcSLu62TU1OgNF",
            "7": "Compendium.pf2e.spells-srd.bVtkBJvGLP69qVGI",
            "8": "Compendium.pf2e.spells-srd.iL6TujgTCtRRa0Y0",
            "9": "Compendium.pf2e.spells-srd.Tc5NLaMu71vrGTJQ"
        },
        "weapons": [
            "dagger"
        ]
    },
    "flags": {},
    "img": "systems/pf2e/icons/deity/Yuelral.webp",
    "name": "Yuelral",
    "type": "deity"
}
