{
    "_id": "i4UU3qCjIMwejIQF",
    "content": "<p><strong>Deities</strong> @Compendium[pf2e.deities.Narriseminek]{Narriseminek}, @Compendium[pf2e.deities.Nhimbaloth]{Nhimbaloth}, @Compendium[pf2e.deities.Shyka]{Shyka}, @Compendium[pf2e.deities.Sivanah]{Sivanah}, @Compendium[pf2e.deities.The Lantern King]{The Lantern King}, @Compendium[pf2e.deities.Tsukiyo]{Tsukiyo}, @Compendium[pf2e.deities.Zura]{Zura}</p>\n<p><strong>Domain Spell</strong> <em>@Compendium[pf2e.spells-srd.Hyperfocus]{Hyperfocus}</em>; <strong>Advanced Domain Spell</strong> <em>@Compendium[pf2e.spells-srd.Ephemeral Hazards]{Ephemeral Hazards}</em></p>\n<p>You can bring about hallucinations and restlessness.</p>",
    "flags": {},
    "name": "Delirium Domain",
    "permission": {
        "default": 0
    }
}
