{
    "_id": "fdSbB0EQVxFgLoEd",
    "data": {
        "actionCategory": {
            "value": ""
        },
        "actionType": {
            "value": "passive"
        },
        "actions": {
            "value": null
        },
        "description": {
            "value": "<p>You obtain a sterling dynamo prosthetic, which allows you to replace or augment a limb, or even add a simple new non-prehensile limb, such as a tail. While your sterling dynamo prosthetic can replace a missing prehensile limb, such as an arm, choosing to add a new limb can never increases your character's number of hands or prehensile limbs beyond two, even in combination with other abilities or effects.</p>\n<p>Your sterling dynamo prosthesis is especially optimized for combat, granting you a dynamo melee unarmed attack that is in the brawling weapon group and is made of silver (which makes it more effective against certain types of creatures, such as devils and werewolves).</p>\n<p>You have several options to customize your sterling dynamo. First, choose whether you have a power driver dynamo, which deals [[/r {1d6}[bludgeoning]]]{1d6 bludgeoning damage} and has the shove trait, or a percussive striker dynamo, which deals [[/r {1d4}[bludgeoning]]]{1d4 bludgeoning damage} and has the agile and finesse traits. Most dynamos are automated, so they don't require a free hand to use, like other unarmed attacks. However, you can instead choose to make your dynamo be manually controlled via a handheld switch, lever, or other device; to make an attack with a manually controlled dynamo, you must have a hand free to operate it, but the benefit is great control and a more devastating strike. This increases the damage die by one size, to a 1d8 for a power drive dynamo or 1d6 for a percussive striker dynamo. Arm dynamos are always manual, but they use the hand on that arm to operate the dynamo when making strikes. Manual control is required only in the heat of combat, not for less strenuous adventuring or everyday activities.</p>\n<p>You need to keep your sterling dynamo wound, but the process isn't particularly onerous, so in most situations, it won't be an issue. If you spend 1 minute winding up your dynamo, it can remain active for 24 hours before needing additional winding. However, enemies can attempt to Disable the dynamo, which has a level equal to your own, to reduce the remaining operational time by 1 hour, or 2 hours on a critical success. Certain other abilities that adversely affect technology might also reduce the dynamo's remaining operational time. When your dynamo is out of operational time, you can still use it as a normal prosthetic, but you cannot use your dynamo unarmed attack or any other abilities from this archetype until you wind the dynamo again. You can wind the dynamo for 1 minute at any time to return it to the maximum 24 hours of operational time.</p>\n<p><strong>Special</strong> You cannot select another dedication feat until you have gained two other feats from the sterling dynamo archetype.</p>"
        },
        "featType": {
            "value": "archetype"
        },
        "level": {
            "value": 2
        },
        "location": "",
        "prerequisites": {
            "value": []
        },
        "rules": [
            {
                "adjustName": false,
                "choices": [
                    {
                        "label": "PF2E.SpecificRule.SterlingDynamo.AutomaticPercussive",
                        "value": "feature:dynamo:automatic-percussive"
                    },
                    {
                        "label": "PF2E.SpecificRule.SterlingDynamo.AutomaticPower",
                        "value": "feature:dynamo:automatic-power"
                    },
                    {
                        "label": "PF2E.SpecificRule.SterlingDynamo.ManualPercussive",
                        "value": "feature:dynamo:manual-percussive"
                    },
                    {
                        "label": "PF2E.SpecificRule.SterlingDynamo.ManualPower",
                        "value": "feature:dynamo:manual-power"
                    }
                ],
                "flag": "dynamoChoice",
                "key": "ChoiceSet",
                "prompt": "PF2E.UI.RuleElements.ChoiceSet.Prompt"
            },
            {
                "domain": "all",
                "key": "RollOption",
                "option": "{item|flags.pf2e.rulesSelections.dynamoChoice}"
            },
            {
                "category": "unarmed",
                "damage": {
                    "base": {
                        "damageType": "bludgeoning",
                        "dice": 1,
                        "die": "d8"
                    }
                },
                "group": "brawling",
                "img": "systems/pf2e/icons/unarmed-attacks/fist-earth-elemental.webp",
                "key": "Strike",
                "label": "Sterling Dynamo",
                "predicate": {
                    "all": [
                        "feature:dynamo:manual-power"
                    ]
                },
                "range": null,
                "traits": [
                    "unarmed",
                    "shove"
                ]
            },
            {
                "category": "unarmed",
                "damage": {
                    "base": {
                        "damageType": "bludgeoning",
                        "dice": 1,
                        "die": "d6"
                    }
                },
                "group": "brawling",
                "img": "systems/pf2e/icons/unarmed-attacks/fist-earth-elemental.webp",
                "key": "Strike",
                "label": "Sterling Dynamo",
                "predicate": {
                    "all": [
                        "feature:dynamo:automatic-power"
                    ]
                },
                "range": null,
                "traits": [
                    "unarmed",
                    "shove"
                ]
            },
            {
                "category": "unarmed",
                "damage": {
                    "base": {
                        "damageType": "bludgeoning",
                        "dice": 1,
                        "die": "d6"
                    }
                },
                "group": "brawling",
                "img": "systems/pf2e/icons/unarmed-attacks/fist-earth-elemental.webp",
                "key": "Strike",
                "label": "Sterling Dynamo",
                "predicate": {
                    "all": [
                        "feature:dynamo:manual-percussive"
                    ]
                },
                "range": null,
                "traits": [
                    "unarmed",
                    "agile",
                    "finesse"
                ]
            },
            {
                "category": "unarmed",
                "damage": {
                    "base": {
                        "damageType": "bludgeoning",
                        "dice": 1,
                        "die": "d8"
                    }
                },
                "group": "brawling",
                "img": "systems/pf2e/icons/unarmed-attacks/fist-earth-elemental.webp",
                "key": "Strike",
                "label": "Sterling Dynamo",
                "predicate": {
                    "all": [
                        "feature:dynamo:automatic-percussive"
                    ]
                },
                "range": null,
                "traits": [
                    "unarmed",
                    "agile",
                    "finesse"
                ]
            }
        ],
        "source": {
            "value": ""
        },
        "traits": {
            "custom": "",
            "rarity": "uncommon",
            "value": [
                "archetype",
                "dedication"
            ]
        }
    },
    "img": "systems/pf2e/icons/default-icons/feats.webp",
    "name": "Sterling Dynamo Dedication",
    "type": "feat"
}
