{
    "_id": "tm8vQ7gdAe9zVdDg",
    "data": {
        "abilities": {
            "cha": {
                "mod": -5
            },
            "con": {
                "mod": 7
            },
            "dex": {
                "mod": 2
            },
            "int": {
                "mod": -5
            },
            "str": {
                "mod": 4
            },
            "wis": {
                "mod": 0
            }
        },
        "attributes": {
            "ac": {
                "details": "",
                "value": 13
            },
            "allSaves": {
                "value": ""
            },
            "hp": {
                "details": "",
                "max": 150,
                "temp": 0,
                "value": 150
            },
            "initiative": {
                "ability": "perception"
            },
            "perception": {
                "value": 10
            },
            "speed": {
                "otherSpeeds": [
                    {
                        "type": "climb",
                        "value": "10"
                    }
                ],
                "value": "20"
            }
        },
        "details": {
            "alignment": {
                "value": "N"
            },
            "blurb": "",
            "creatureType": "",
            "level": {
                "value": 6
            },
            "privateNotes": "",
            "publicNotes": "",
            "source": {
                "value": "Pathfinder #158: Sixty Feet Under"
            }
        },
        "resources": {},
        "saves": {
            "fortitude": {
                "saveDetail": "",
                "value": 17
            },
            "reflex": {
                "saveDetail": "",
                "value": 10
            },
            "will": {
                "saveDetail": "",
                "value": 8
            }
        },
        "traits": {
            "attitude": {
                "value": "hostile"
            },
            "ci": [],
            "di": {
                "custom": "",
                "value": [
                    "acid",
                    "critical-hits",
                    "mental",
                    "precision",
                    "unconscious",
                    "visual"
                ]
            },
            "dr": [],
            "dv": [],
            "languages": {
                "custom": "",
                "selected": [],
                "value": []
            },
            "rarity": "uncommon",
            "senses": {
                "value": "motion sense 60 feet; treasure sense (imprecise) 30 feet"
            },
            "size": {
                "value": "lg"
            },
            "traits": {
                "custom": "",
                "value": [
                    "mindless",
                    "ooze"
                ]
            }
        }
    },
    "img": "systems/pf2e/icons/default-icons/npc.svg",
    "items": [
        {
            "_id": "Ys0t5quGKBZoMSOI",
            "data": {
                "attack": {
                    "value": ""
                },
                "attackEffects": {
                    "custom": "",
                    "value": []
                },
                "bonus": {
                    "value": 17
                },
                "damageRolls": {
                    "1yqer3os209it2bd5jjg": {
                        "damage": "1d8+8",
                        "damageType": "bludgeoning"
                    },
                    "25go8chpe9nh4imc6dy7": {
                        "damage": "2d6",
                        "damageType": "acid"
                    }
                },
                "description": {
                    "value": ""
                },
                "rules": [],
                "slug": null,
                "source": {
                    "value": ""
                },
                "traits": {
                    "custom": "",
                    "rarity": "common",
                    "value": []
                },
                "weaponType": {
                    "value": "melee"
                }
            },
            "img": "systems/pf2e/icons/default-icons/melee.svg",
            "name": "Pseudopod",
            "sort": 100000,
            "type": "melee"
        },
        {
            "_id": "YhPJNRCs20xqntX6",
            "data": {
                "actionCategory": {
                    "value": "interaction"
                },
                "actionType": {
                    "value": "passive"
                },
                "actions": {
                    "value": null
                },
                "description": {
                    "value": "<p>A vaultbreaker ooze can sense nearby motion through vibration and air movement.</p>"
                },
                "requirements": {
                    "value": ""
                },
                "rules": [],
                "slug": null,
                "source": {
                    "value": ""
                },
                "traits": {
                    "custom": "",
                    "rarity": "common",
                    "value": []
                },
                "trigger": {
                    "value": ""
                },
                "weapon": {
                    "value": ""
                }
            },
            "img": "systems/pf2e/icons/actions/Passive.webp",
            "name": "Motion Sense 60 feet",
            "sort": 200000,
            "type": "action"
        },
        {
            "_id": "efKlG6Tj9bAd6SQ9",
            "data": {
                "actionCategory": {
                    "value": "interaction"
                },
                "actionType": {
                    "value": "passive"
                },
                "actions": {
                    "value": null
                },
                "description": {
                    "value": "<p>The vaultbreaker ooze's metallic plasm alerts it to the presence of metals with the precious trait (including gold and platinum) within 30 feet.</p>"
                },
                "requirements": {
                    "value": ""
                },
                "rules": [],
                "slug": null,
                "source": {
                    "value": ""
                },
                "traits": {
                    "custom": "",
                    "rarity": "common",
                    "value": []
                },
                "trigger": {
                    "value": ""
                },
                "weapon": {
                    "value": ""
                }
            },
            "img": "systems/pf2e/icons/actions/Passive.webp",
            "name": "Treasure Sense (Imprecise) 30 feet",
            "sort": 300000,
            "type": "action"
        },
        {
            "_id": "MyTJRF05gqbWnyPq",
            "data": {
                "actionCategory": {
                    "value": "defensive"
                },
                "actionType": {
                    "value": "reaction"
                },
                "actions": {
                    "value": null
                },
                "description": {
                    "value": "<p><strong>Trigger</strong> A creature Strikes the vaultbreaker ooze</p>\n<p><strong>Effect</strong> The ooze's outer plasm hardens into a protective shell of precious metals. Until the start of its next turn, it gains resistance 5 to physical damage (except adamantine), it has a -5-foot penalty to its Speed, and its pseudopod Strikes gain the versatile S or P weapon trait.</p>"
                },
                "requirements": {
                    "value": ""
                },
                "rules": [],
                "slug": null,
                "source": {
                    "value": ""
                },
                "traits": {
                    "custom": "",
                    "rarity": "common",
                    "value": [
                        "manipulate",
                        "polymorph",
                        "transmutation"
                    ]
                },
                "trigger": {
                    "value": ""
                },
                "weapon": {
                    "value": ""
                }
            },
            "img": "systems/pf2e/icons/actions/Reaction.webp",
            "name": "Metallify",
            "sort": 400000,
            "type": "action"
        },
        {
            "_id": "97KS2uPGBbRl3fOQ",
            "data": {
                "actionCategory": {
                    "value": "offensive"
                },
                "actionType": {
                    "value": "action"
                },
                "actions": {
                    "value": 2
                },
                "description": {
                    "value": "<p>@Check[type:reflex|dc:23|traits:damaging-effect], [[/r {2d8+9}[acid]]]{2d8+9 acid damage}, Escape DC 23, Rupture 14 (19 when using Metallify)</p>\n<hr />\n<p>@Localize[PF2E.NPC.Abilities.Glossary.Engulf]</p>"
                },
                "requirements": {
                    "value": ""
                },
                "rules": [],
                "slug": "engulf",
                "source": {
                    "value": ""
                },
                "traits": {
                    "custom": "",
                    "rarity": "common",
                    "value": []
                },
                "trigger": {
                    "value": ""
                },
                "weapon": {
                    "value": ""
                }
            },
            "flags": {
                "core": {
                    "sourceId": "Compendium.pf2e.bestiary-ability-glossary-srd.zU3Ovaet4xQ5Gmvy"
                }
            },
            "img": "systems/pf2e/icons/actions/TwoActions.webp",
            "name": "Engulf",
            "sort": 500000,
            "type": "action"
        },
        {
            "_id": "BasU6Iuc7hRxhoYG",
            "data": {
                "actionCategory": {
                    "value": "offensive"
                },
                "actionType": {
                    "value": "action"
                },
                "actions": {
                    "value": 2
                },
                "description": {
                    "value": "<p>The vaultbreaker ooze instinctually shapes its pseudopod into a key, lockpick, or tool required to bypass a locking mechanism; it uses this pseudopod as thieves' tools to Pick a Lock or Disable a Device.</p>"
                },
                "requirements": {
                    "value": ""
                },
                "rules": [],
                "slug": null,
                "source": {
                    "value": ""
                },
                "traits": {
                    "custom": "",
                    "rarity": "common",
                    "value": [
                        "manipulate",
                        "polymorph",
                        "transmutation"
                    ]
                },
                "trigger": {
                    "value": ""
                },
                "weapon": {
                    "value": ""
                }
            },
            "img": "systems/pf2e/icons/actions/TwoActions.webp",
            "name": "Form Tool",
            "sort": 600000,
            "type": "action"
        },
        {
            "_id": "qbMcU1wYbqitQEVJ",
            "data": {
                "description": {
                    "value": ""
                },
                "mod": {
                    "value": 17
                },
                "proficient": {
                    "value": 0
                },
                "rules": [],
                "slug": null,
                "source": {
                    "value": ""
                },
                "traits": {
                    "custom": "",
                    "rarity": "common",
                    "value": []
                }
            },
            "img": "systems/pf2e/icons/default-icons/lore.svg",
            "name": "Thievery",
            "sort": 700000,
            "type": "lore"
        }
    ],
    "name": "Vaultbreaker Ooze",
    "token": {
        "disposition": -1,
        "height": 2,
        "img": "systems/pf2e/icons/default-icons/npc.svg",
        "name": "Vaultbreaker Ooze",
        "width": 2
    },
    "type": "npc"
}
