{
    "_id": "rR8UYHHpo2Rffi1p",
    "data": {
        "actionCategory": {
            "value": "offensive"
        },
        "actionType": {
            "value": "action"
        },
        "actions": {
            "value": 1
        },
        "deathNote": false,
        "description": {
            "value": "<p>You designate a single construct within 30 feet that you can see or hear. The construct is @Compendium[pf2e.conditionitems.Slowed]{Slowed 1} for 1 minute.</p>"
        },
        "requirements": {
            "value": ""
        },
        "rules": [],
        "source": {
            "value": "Pathfinder Society Scenario 1-00: Origin of the Open Road"
        },
        "traits": {
            "custom": "",
            "rarity": "common",
            "value": [
                "concentrate",
                "manipulate"
            ]
        },
        "trigger": {
            "value": ""
        },
        "weapon": {
            "value": ""
        }
    },
    "flags": {},
    "img": "systems/pf2e/icons/actions/OneAction.webp",
    "name": "De-Animating Gestures (True)",
    "type": "action"
}
