{
    "_id": "ayCK1wCQY7mCCyxh",
    "data": {
        "attributes": {
            "ac": {
                "value": 10
            },
            "hardness": 0,
            "hp": {
                "details": "",
                "max": 10,
                "temp": 0,
                "value": 10
            },
            "stealth": {
                "details": "<p>to notice the door sway slightly, even though there's no breeze</p>",
                "value": 8
            }
        },
        "creatureType": "",
        "details": {
            "description": "<p>A door (or other portal) slams shut and locks.</p>",
            "disable": "<p>@Check[type:athletics|dc:14|name:Push Back Against the Door] to push back against the door, @Check[type:crafting|dc:14|name:Wedge the Door Open] to wedge the door open, or @Check[type:thievery|dc:20|name:Jam the Lock] (trained) to jam the lock or open the lock afterward</p>",
            "isComplex": false,
            "level": {
                "value": -1
            },
            "reset": "",
            "routine": ""
        },
        "saves": {
            "fortitude": {
                "saveDetail": "",
                "value": 0
            },
            "reflex": {
                "saveDetail": "",
                "value": 0
            },
            "will": {
                "saveDetail": "",
                "value": 0
            }
        },
        "source": {
            "value": "Pathfinder Book of the Dead"
        },
        "statusEffects": [],
        "traits": {
            "di": {
                "custom": "",
                "selected": {},
                "value": []
            },
            "dr": [],
            "dv": [],
            "rarity": "common",
            "size": {
                "value": "med"
            },
            "traits": {
                "custom": "",
                "value": [
                    "haunt"
                ]
            }
        }
    },
    "img": "systems/pf2e/icons/default-icons/hazard.svg",
    "items": [
        {
            "_id": "RsT9PJggBJ9E7yXV",
            "data": {
                "actionCategory": {
                    "value": "offensive"
                },
                "actionType": {
                    "value": "reaction"
                },
                "actions": {
                    "value": null
                },
                "deathNote": false,
                "description": {
                    "value": "<p><strong>Trigger</strong> A creature ends their move after passing through the doorway</p>\n<p><strong>Effect</strong> With an ethereal gust shimmering in the air, the door creaks as it swings shut and locks. The haunted door pushes anyone in its space into an adjacent space in the connecting chamber. A creature that would be pushed and succeeds at a @Check[type:reflex|dc:16] save selects which side of the door they end up on.</p>"
                },
                "requirements": {
                    "value": ""
                },
                "rules": [],
                "slug": null,
                "source": {
                    "value": ""
                },
                "traits": {
                    "custom": "",
                    "rarity": "common",
                    "value": []
                },
                "trigger": {
                    "value": ""
                }
            },
            "img": "systems/pf2e/icons/actions/Reaction.webp",
            "name": "Shut In",
            "sort": 0,
            "type": "action"
        }
    ],
    "name": "Locking Door",
    "token": {
        "disposition": 0,
        "height": 1,
        "img": "systems/pf2e/icons/default-icons/hazard.svg",
        "name": "Locking Door",
        "width": 1
    },
    "type": "hazard"
}
