{
    "_id": "LWLUaSHl8YCZdDMH",
    "data": {
        "abilities": {
            "cha": {
                "mod": 4
            },
            "con": {
                "mod": 4
            },
            "dex": {
                "mod": 5
            },
            "int": {
                "mod": 3
            },
            "str": {
                "mod": 6
            },
            "wis": {
                "mod": 4
            }
        },
        "attributes": {
            "ac": {
                "details": "",
                "value": 26
            },
            "allSaves": {
                "value": ""
            },
            "hp": {
                "details": "fast healing 10, mental rebirth, negative healing",
                "max": 100,
                "temp": 0,
                "value": 100
            },
            "initiative": {
                "ability": "perception"
            },
            "perception": {
                "value": 14
            },
            "speed": {
                "otherSpeeds": [
                    {
                        "type": "climb",
                        "value": "25"
                    }
                ],
                "special": "",
                "value": "25"
            }
        },
        "details": {
            "alignment": {
                "value": "CE"
            },
            "blurb": "",
            "creatureType": "",
            "level": {
                "value": 8
            },
            "privateNotes": "",
            "publicNotes": "<p>Vetalarana vampires feed on the emotions, thoughts, and memories of others. Although they are capable of feeding on animals, beings of the planes, and other intelligent undead, only the thoughts of an intelligent, living humanoid bring a vetalarana any sense of satisfaction. Slender and pale, with sunken cheeks and exceptionally long nails, vetalaranas become flushed with color and life after feeding on particularly potent emotions and thoughts, enabling some to pass as living for a short time.</p>\n<p>A vetalarana is created when a person with psychic or occult abilities dies in denial of their death, refusing to pass on to the afterlife but unable to retain their grip on life. As their spirit has no cause left undone nor debt to settle, these tenacious souls rise not as ghosts but as vetalaranas, a formidable and tenacious mind animating their own corpse in a mockery of life.</p>\n<p>A vetalarana's predations inevitably turn their victims into living husks, incapable of thought and devoid of any spark of personality. These victims fall into a senseless stupor, comatose but still living, without identity or memories. If a vetalarana is killed, they can occupy one of these comatose husks, while more powerful vetalaranas can control them like living puppets.</p>\n<p>When a vetalarana is destroyed, all of their comatose victims are immediately freed. Most often, these people regain consciousness as amnesiacs whose memories return over time&mdash;taking at least months but sometimes as long as decades. These returned memories are fragmented and often jumbled with the thoughts of others the vetalarana fed upon. If a victim served as a failed host or was frequently controlled while comatose, a sliver of the vetalarana's corrupted thoughts remain in the victim's mind. These tainted victims recover much faster than their fellows, regaining their memories in record time and transforming into a new vetalarana soon after.</p>\n<p>A vetalarana emergent is inexperienced and ravenous, often caring more for the consumption of thoughts than the quality of the thoughts and memories consumed. These undead gluttons gorge themselves on memories, leaving a crowd of addled and terrified victims in their wake. Experienced emergents are cannier than their newly risen kin, stalking their chosen victims and being sure to abduct, kill, or render their victims comatose after draining their memories to ensure no witnesses remain to reveal the presence of a vetalarana.</p>",
            "source": {
                "value": "Pathfinder Book of the Dead"
            }
        },
        "resources": {},
        "saves": {
            "fortitude": {
                "saveDetail": "",
                "value": 14
            },
            "reflex": {
                "saveDetail": "",
                "value": 17
            },
            "will": {
                "saveDetail": "",
                "value": 16
            }
        },
        "traits": {
            "ci": [],
            "di": {
                "custom": "",
                "value": [
                    "death-effects",
                    "disease",
                    "paralyzed",
                    "poison",
                    "sleep"
                ]
            },
            "dr": [
                {
                    "exceptions": "",
                    "type": "mental",
                    "value": 10
                },
                {
                    "exceptions": "except cold iron",
                    "type": "physical",
                    "value": 10
                }
            ],
            "dv": [],
            "languages": {
                "custom": "",
                "selected": [],
                "value": [
                    "common",
                    "necril"
                ]
            },
            "rarity": "common",
            "senses": {
                "value": "darkvision, thoughtsense (precise) 100 feet"
            },
            "size": {
                "value": "med"
            },
            "traits": {
                "custom": "",
                "value": [
                    "undead",
                    "vampire"
                ]
            }
        }
    },
    "img": "systems/pf2e/icons/default-icons/npc.svg",
    "items": [
        {
            "_id": "fN1JV4sjRyAtaSwd",
            "data": {
                "MAP": {
                    "value": ""
                },
                "baseItem": "crossbow",
                "bonus": {
                    "value": 0
                },
                "bonusDamage": {
                    "value": 0
                },
                "category": "simple",
                "containerId": null,
                "damage": {
                    "damageType": "piercing",
                    "dice": 1,
                    "die": "d8",
                    "value": ""
                },
                "description": {
                    "value": "<p>This ranged weapon has a bow-like assembly mounted on a handled frame called a tiller. The tiller has a mechanism to lock the bowstring in place, attached to a trigger mechanism that releases the tension and launches a bolt.</p>"
                },
                "equipped": {
                    "carryType": "worn",
                    "handsHeld": 0,
                    "invested": null
                },
                "equippedBulk": {
                    "value": ""
                },
                "group": "bow",
                "hardness": 0,
                "hp": {
                    "brokenThreshold": 0,
                    "max": 0,
                    "value": 0
                },
                "level": {
                    "value": 0
                },
                "negateBulk": {
                    "value": "0"
                },
                "potencyRune": {
                    "value": 1
                },
                "preciousMaterial": {
                    "value": null
                },
                "preciousMaterialGrade": {
                    "value": null
                },
                "price": {
                    "value": {
                        "gp": 3
                    }
                },
                "property1": {
                    "critDamage": "",
                    "critDamageType": "",
                    "critDice": null,
                    "critDie": "",
                    "criticalConditionType": "",
                    "criticalConditionValue": null,
                    "damageType": "",
                    "dice": null,
                    "die": "",
                    "strikeConditionType": "",
                    "strikeConditionValue": null,
                    "value": ""
                },
                "propertyRune1": {
                    "value": null
                },
                "propertyRune2": {
                    "value": null
                },
                "propertyRune3": {
                    "value": null
                },
                "propertyRune4": {
                    "value": null
                },
                "quantity": 1,
                "range": 120,
                "reload": {
                    "value": "1"
                },
                "rules": [],
                "size": "med",
                "slug": "crossbow",
                "source": {
                    "value": "Pathfinder Core Rulebook"
                },
                "specific": {
                    "value": false
                },
                "splashDamage": {
                    "value": 0
                },
                "stackGroup": null,
                "strikingRune": {
                    "value": "striking"
                },
                "traits": {
                    "custom": "",
                    "rarity": "common",
                    "value": []
                },
                "usage": {
                    "value": "held-in-two-hands"
                },
                "weight": {
                    "value": "1"
                }
            },
            "flags": {
                "core": {
                    "sourceId": "Compendium.pf2e.equipment-srd.62nnVQvGhoVLLl2K"
                }
            },
            "img": "systems/pf2e/icons/equipment/weapons/crossbow.webp",
            "name": "Crossbow",
            "sort": 100000,
            "type": "weapon"
        },
        {
            "_id": "ubqhrgnv2m0l1100",
            "data": {
                "attack": {
                    "value": ""
                },
                "attackEffects": {
                    "custom": "",
                    "value": [
                        "grab"
                    ]
                },
                "bonus": {
                    "value": 20
                },
                "damageRolls": {
                    "hYFi1ov41fRUemTq": {
                        "damage": "2d8+9",
                        "damageType": "slashing"
                    }
                },
                "description": {
                    "value": ""
                },
                "rules": [],
                "slug": null,
                "source": {
                    "value": ""
                },
                "traits": {
                    "custom": "",
                    "rarity": "common",
                    "value": [
                        "agile"
                    ]
                },
                "weaponType": {
                    "value": "melee"
                }
            },
            "img": "systems/pf2e/icons/default-icons/melee.svg",
            "name": "Claw",
            "sort": 200000,
            "type": "melee"
        },
        {
            "_id": "rpzk7dfngnq6h4fj",
            "data": {
                "attack": {
                    "value": ""
                },
                "attackEffects": {
                    "custom": "",
                    "value": []
                },
                "bonus": {
                    "value": 20
                },
                "damageRolls": {
                    "pTp6aGbfErOMV04w": {
                        "damage": "2d8+3",
                        "damageType": "piercing"
                    }
                },
                "description": {
                    "value": ""
                },
                "rules": [],
                "slug": null,
                "source": {
                    "value": ""
                },
                "traits": {
                    "custom": "",
                    "rarity": "common",
                    "value": [
                        "magical",
                        "range-increment-120",
                        "reload-1"
                    ]
                },
                "weaponType": {
                    "value": "ranged"
                }
            },
            "img": "systems/pf2e/icons/default-icons/melee.svg",
            "name": "Crossbow",
            "sort": 300000,
            "type": "melee"
        },
        {
            "_id": "Wunpn2wRMKV7JLZr",
            "data": {
                "actionCategory": {
                    "value": "interaction"
                },
                "actionType": {
                    "value": "passive"
                },
                "actions": {
                    "value": null
                },
                "deathNote": false,
                "description": {
                    "value": "<p>@Localize[PF2E.NPC.Abilities.Glossary.Darkvision]</p>"
                },
                "requirements": {
                    "value": ""
                },
                "rules": [],
                "slug": "darkvision",
                "source": {
                    "value": ""
                },
                "traits": {
                    "custom": "",
                    "rarity": "common",
                    "value": []
                },
                "trigger": {
                    "value": ""
                },
                "weapon": {
                    "value": ""
                }
            },
            "flags": {
                "core": {
                    "sourceId": "Compendium.pf2e.bestiary-ability-glossary-srd.qCCLZhnp2HhP3Ex6"
                }
            },
            "img": "systems/pf2e/icons/actions/Passive.webp",
            "name": "Darkvision",
            "sort": 400000,
            "type": "action"
        },
        {
            "_id": "MIBK76pXVm7hAU66",
            "data": {
                "actionCategory": {
                    "value": "interaction"
                },
                "actionType": {
                    "value": "passive"
                },
                "actions": {
                    "value": null
                },
                "deathNote": false,
                "description": {
                    "value": "<p>@Localize[PF2E.NPC.Abilities.Glossary.Thoughtsense]</p>"
                },
                "requirements": {
                    "value": ""
                },
                "rules": [],
                "slug": "thoughtsense",
                "source": {
                    "value": ""
                },
                "traits": {
                    "custom": "",
                    "rarity": "common",
                    "value": []
                },
                "trigger": {
                    "value": ""
                },
                "weapon": {
                    "value": ""
                }
            },
            "flags": {
                "core": {
                    "sourceId": "Compendium.pf2e.bestiary-ability-glossary-srd.JcaIJLGGmst79f1Y"
                }
            },
            "img": "systems/pf2e/icons/actions/Passive.webp",
            "name": "Thoughtsense (Precise) 100 feet",
            "sort": 500000,
            "type": "action"
        },
        {
            "_id": "NjGL58OXlG8alhDr",
            "data": {
                "actionCategory": {
                    "value": "defensive"
                },
                "actionType": {
                    "value": "passive"
                },
                "actions": {
                    "value": null
                },
                "deathNote": false,
                "description": {
                    "value": "<p>@Localize[PF2E.NPC.Abilities.Glossary.FastHealing]</p>"
                },
                "requirements": {
                    "value": ""
                },
                "rules": [],
                "slug": "fast-healing",
                "source": {
                    "value": ""
                },
                "traits": {
                    "custom": "",
                    "rarity": "common",
                    "value": []
                },
                "trigger": {
                    "value": ""
                },
                "weapon": {
                    "value": ""
                }
            },
            "flags": {
                "core": {
                    "sourceId": "Compendium.pf2e.bestiary-ability-glossary-srd.fJSNOw4zHGbIm4bZ"
                }
            },
            "img": "systems/pf2e/icons/actions/Passive.webp",
            "name": "Fast Healing 10",
            "sort": 600000,
            "type": "action"
        },
        {
            "_id": "objWEl4wPiQkNnho",
            "data": {
                "actionCategory": {
                    "value": "defensive"
                },
                "actionType": {
                    "value": "passive"
                },
                "actions": {
                    "value": null
                },
                "deathNote": false,
                "description": {
                    "value": "<p>@Localize[PF2E.NPC.Abilities.Glossary.NegativeHealing]</p>"
                },
                "requirements": {
                    "value": ""
                },
                "rules": [
                    {
                        "key": "ActiveEffectLike",
                        "mode": "override",
                        "path": "data.attributes.hp.negativeHealing",
                        "value": true
                    }
                ],
                "slug": "negative-healing",
                "source": {
                    "value": ""
                },
                "traits": {
                    "custom": "",
                    "rarity": "common",
                    "value": []
                },
                "trigger": {
                    "value": ""
                },
                "weapon": {
                    "value": ""
                }
            },
            "flags": {
                "core": {
                    "sourceId": "Compendium.pf2e.bestiary-ability-glossary-srd.TTCw5NusiSSkJU1x"
                }
            },
            "img": "systems/pf2e/icons/actions/Passive.webp",
            "name": "Negative Healing",
            "sort": 700000,
            "type": "action"
        },
        {
            "_id": "chqupAH7uMySkbAy",
            "data": {
                "actionCategory": {
                    "value": "defensive"
                },
                "actionType": {
                    "value": "passive"
                },
                "actions": {
                    "value": null
                },
                "deathNote": true,
                "description": {
                    "value": "<p>Unlike most other undead, a vetalarana isn't destroyed when they reach 0 HP. Instead, their body is destroyed, crumbling to ash, and their mind is immediately transferred into a creature they rendered comatose through Drain Thoughts. This creature must be within 1 mile; if no such creature is in range, the vetalarana is destroyed. The creature becomes controlled by the vetalarana and loses the stupefied and @Compendium[pf2e.conditionitems.Unconscious]{Unconscious} conditions. If the creature controlled by a vetalarana in this way is killed, the vetalarana's mind transfers to another creature within 1 mile who they rendered comatose through Drain Thoughts.</p>\n<p>After [[/r 1d6 #days]]{1d6 days} of being controlled, the controlled creature dies, and its body transforms into that of the vetalarana who rendered it comatose.</p>"
                },
                "requirements": {
                    "value": ""
                },
                "rules": [],
                "slug": "vampire-vetalarana-basic-mental-rebirth",
                "source": {
                    "value": "Pathfinder Book of the Dead"
                },
                "traits": {
                    "custom": "",
                    "rarity": "common",
                    "value": [
                        "curse",
                        "incapacitation",
                        "mental",
                        "necromancy",
                        "occult"
                    ]
                },
                "trigger": {
                    "value": ""
                }
            },
            "flags": {
                "core": {
                    "sourceId": "Compendium.pf2e.bestiary-family-ability-glossary.268Q7HdtylwpznvG"
                }
            },
            "img": "systems/pf2e/icons/actions/Passive.webp",
            "name": "Mental Rebirth",
            "sort": 800000,
            "type": "action"
        },
        {
            "_id": "cg7mnEAt7MBa8UwC",
            "data": {
                "actionCategory": {
                    "value": "defensive"
                },
                "actionType": {
                    "value": "passive"
                },
                "actions": {
                    "value": null
                },
                "deathNote": false,
                "description": {
                    "value": "<p>All vetalaranas possess the following weaknesses.</p>\n<ul>\n<li><strong>Barred Senses</strong> A vetalarana can't see or sense through force effects or cold iron, and their mind can't penetrate force effects or cold iron. Such barriers can prevent the transference of a vetalarana's mind through Mental Rebirth.</li>\n<li><strong>Revulsion</strong> A vetalarana delights in consuming memories and secrets, and is disgusted by those who share such sensitive tidbits openly. A vetalarana can't voluntarily come within 10 feet of a creature loudly voicing their intimate personal secrets or most cherished memories aloud. Speaking such information aloud with conviction is a single action that has the auditory, concentrate, and linguistic traits, and protects the creature until the start of its next turn. A vetalarana that involuntarily comes within 10 feet of a creature sharing such information gains the @Compendium[pf2e.conditionitems.Fleeing]{Fleeing} condition until they're 10 feet or farther from the creature. After 1 round of being exposed to the secrets of a creature, a vetalarana can attempt a @Check[type:will|dc:25] save as a single action, which has the concentrate trait. On a success, they overcome their revulsions for [[/r 1d6 #rounds]]{1d6 rounds} (or 1 hour on a critical success).</li>\n<li><strong>Vulnerable to Brain Destruction</strong> A vetalarana whose brain has been destroyed, or is reduced to 0 HP while unable to take mental actions, can't use Mental Rebirth.</li>\n</ul>"
                },
                "requirements": {
                    "value": ""
                },
                "rules": [],
                "slug": "vampire-vetalarana-basic-vetalarana-vulnerabilities",
                "source": {
                    "value": "Pathfinder Book of the Dead"
                },
                "traits": {
                    "custom": "",
                    "rarity": "common",
                    "value": []
                },
                "trigger": {
                    "value": ""
                }
            },
            "flags": {
                "core": {
                    "sourceId": "Compendium.pf2e.bestiary-family-ability-glossary.rwEFqSLw4yIscGrO"
                }
            },
            "img": "systems/pf2e/icons/actions/Passive.webp",
            "name": "Vetalarana Vulnerabilities",
            "sort": 900000,
            "type": "action"
        },
        {
            "_id": "girs49ehz5bzw3df",
            "data": {
                "actionCategory": {
                    "value": "offensive"
                },
                "actionType": {
                    "value": "passive"
                },
                "actions": {
                    "value": null
                },
                "deathNote": false,
                "description": {
                    "value": "<p>The vetalarana emergent uses consumed memories to anticipate their prey's movements. The vetalarana emergent's Strikes deal an additional [[/r {1d8}[precision]]]{1d8 precision damage} to creatures stupefied due to the vetalarana's Drain Thoughts.</p>"
                },
                "requirements": {
                    "value": ""
                },
                "rules": [
                    {
                        "domain": "all",
                        "key": "RollOption",
                        "option": "anticipatory-attack",
                        "toggleable": true,
                        "value": false
                    },
                    {
                        "category": "precision",
                        "diceNumber": 1,
                        "dieSize": "d8",
                        "key": "DamageDice",
                        "selector": "damage",
                        "traits": [
                            "anticipatory-attack"
                        ]
                    }
                ],
                "slug": null,
                "source": {
                    "value": ""
                },
                "traits": {
                    "custom": "",
                    "rarity": "common",
                    "value": []
                },
                "trigger": {
                    "value": ""
                }
            },
            "img": "systems/pf2e/icons/actions/Passive.webp",
            "name": "Anticipatory Attack",
            "sort": 1000000,
            "type": "action"
        },
        {
            "_id": "jQEBpMjZVXEPDHQy",
            "data": {
                "actionCategory": {
                    "value": "offensive"
                },
                "actionType": {
                    "value": "action"
                },
                "actions": {
                    "value": 1
                },
                "deathNote": false,
                "description": {
                    "value": "<p><strong>Requirements</strong> A @Compendium[pf2e.conditionitems.Grabbed]{Grabbed}, @Compendium[pf2e.conditionitems.Paralyzed]{Paralyzed}, @Compendium[pf2e.conditionitems.Restrained]{Restrained}, @Compendium[pf2e.conditionitems.Unconscious]{Unconscious}, or willing creature is within the vetalarana's reach;</p>\n<p><strong>Effect</strong> The vetalarana seizes a creature and consumes its memories. This requires an Athletics check against the victim's Fortitude DC if the victim is grabbed and is automatic for any of the other conditions. The victim is @Compendium[pf2e.conditionitems.Stupefied]{Stupefied 1}, and the vetalarana regains [[/r 10 #Hit Point]]{10 HP}, gaining any excess as temporary Hit Points. Draining Thoughts from a creature that is already stupefied doesn't restore any HP to the vetalarana but increases the victim's stupefied value by 1. Additionally, the vetalarana views one of the victim's memories.</p>\n<p>A victim's stupefied condition value decreases by 1 every week.</p>\n<p>A victim that becomes stupefied 5 in this way is rendered comatose, becoming permanently @Compendium[pf2e.conditionitems.Unconscious]{Unconscious}. As long as the vetalarana lives, a comatose victim can't regain consciousness, and its stupefied condition doesn't decrease.</p>"
                },
                "requirements": {
                    "value": ""
                },
                "rules": [],
                "slug": "vampire-vetalarana-basic-drain-thoughts",
                "source": {
                    "value": "Pathfinder Book of the Dead"
                },
                "traits": {
                    "custom": "",
                    "rarity": "common",
                    "value": [
                        "divination",
                        "mental",
                        "occult"
                    ]
                },
                "trigger": {
                    "value": ""
                }
            },
            "flags": {
                "core": {
                    "sourceId": "Compendium.pf2e.bestiary-family-ability-glossary.EpDyZ0mG9beLkBna"
                }
            },
            "img": "systems/pf2e/icons/actions/OneAction.webp",
            "name": "Drain Thoughts",
            "sort": 1100000,
            "type": "action"
        },
        {
            "_id": "JxEmM6BuyP2WDNYs",
            "data": {
                "actionCategory": {
                    "value": "offensive"
                },
                "actionType": {
                    "value": "action"
                },
                "actions": {
                    "value": 1
                },
                "deathNote": false,
                "description": {
                    "value": "<p>@Localize[PF2E.NPC.Abilities.Glossary.Grab]</p>"
                },
                "requirements": {
                    "value": ""
                },
                "rules": [],
                "slug": "grab",
                "source": {
                    "value": ""
                },
                "traits": {
                    "custom": "",
                    "rarity": "common",
                    "value": []
                },
                "trigger": {
                    "value": ""
                },
                "weapon": {
                    "value": ""
                }
            },
            "flags": {
                "core": {
                    "sourceId": "Compendium.pf2e.bestiary-ability-glossary-srd.Tkd8sH4pwFIPzqTr"
                }
            },
            "img": "systems/pf2e/icons/actions/OneAction.webp",
            "name": "Grab",
            "sort": 1200000,
            "type": "action"
        },
        {
            "_id": "b28wfqlwzg5tecql",
            "data": {
                "description": {
                    "value": ""
                },
                "mod": {
                    "value": 15
                },
                "proficient": {
                    "value": 0
                },
                "rules": [],
                "slug": null,
                "source": {
                    "value": ""
                },
                "traits": {
                    "custom": "",
                    "rarity": "common",
                    "value": []
                }
            },
            "img": "systems/pf2e/icons/default-icons/lore.svg",
            "name": "Acrobatics",
            "sort": 1300000,
            "type": "lore"
        },
        {
            "_id": "zzfzwn05j0nc0z5l",
            "data": {
                "description": {
                    "value": ""
                },
                "mod": {
                    "value": 18
                },
                "proficient": {
                    "value": 0
                },
                "rules": [],
                "slug": null,
                "source": {
                    "value": ""
                },
                "traits": {
                    "custom": "",
                    "rarity": "common",
                    "value": []
                }
            },
            "img": "systems/pf2e/icons/default-icons/lore.svg",
            "name": "Athletics",
            "sort": 1400000,
            "type": "lore"
        },
        {
            "_id": "52p0k7t3d6fhb12w",
            "data": {
                "description": {
                    "value": ""
                },
                "mod": {
                    "value": 16
                },
                "proficient": {
                    "value": 0
                },
                "rules": [],
                "slug": null,
                "source": {
                    "value": ""
                },
                "traits": {
                    "custom": "",
                    "rarity": "common",
                    "value": []
                }
            },
            "img": "systems/pf2e/icons/default-icons/lore.svg",
            "name": "Intimidation",
            "sort": 1500000,
            "type": "lore"
        },
        {
            "_id": "r91xrardyixu4i85",
            "data": {
                "description": {
                    "value": ""
                },
                "mod": {
                    "value": 13
                },
                "proficient": {
                    "value": 0
                },
                "rules": [],
                "slug": null,
                "source": {
                    "value": ""
                },
                "traits": {
                    "custom": "",
                    "rarity": "common",
                    "value": []
                }
            },
            "img": "systems/pf2e/icons/default-icons/lore.svg",
            "name": "Occultism",
            "sort": 1600000,
            "type": "lore"
        },
        {
            "_id": "ck52dz73lesupbsz",
            "data": {
                "description": {
                    "value": ""
                },
                "mod": {
                    "value": 17
                },
                "proficient": {
                    "value": 0
                },
                "rules": [],
                "slug": null,
                "source": {
                    "value": ""
                },
                "traits": {
                    "custom": "",
                    "rarity": "common",
                    "value": []
                }
            },
            "img": "systems/pf2e/icons/default-icons/lore.svg",
            "name": "Stealth",
            "sort": 1700000,
            "type": "lore"
        }
    ],
    "name": "Vetalarana Emergent",
    "token": {
        "disposition": -1,
        "height": 1,
        "img": "systems/pf2e/icons/default-icons/npc.svg",
        "name": "Vetalarana Emergent",
        "width": 1
    },
    "type": "npc"
}
