{
    "_id": "0FwLrQb5EeQDAUNW",
    "data": {
        "actionCategory": {
            "value": ""
        },
        "actionType": {
            "value": "passive"
        },
        "actions": {
            "value": null
        },
        "description": {
            "value": "<p><strong>[Downtime]</strong></p>\n<p><strong>Prerequisites</strong> Tier 1 with the Verdant Wheel</p>\n<p><strong>Cost</strong> 2 Fame</p>\n<p><strong>Effect</strong> When you acquire this boon choose an alchemical item or potion of your level or lower to which you have access. While you have this boon slotted, you can spend Downtime to search for rare herbs and ingredients in order to craft up to a full batch of this item (typically 4). This uses the same rules as you would to Craft the item, with the following exceptions. First, you must use Nature, Survival, or Herbalism Lore in place of Crafting (such as to determine the progress you make and the maximum item level you can work on). Second, your faction provides you the necessary tools and workspace to perform this operation. Third, you only need to spend 2 days of Downtime before attempting your first skill check and subsequently beginning to reduce the item's effective cost. You must keep this boon slotted until you finish crafting the items.</p>\n<p><strong>Special</strong> You can purchase this boon multiple times. Each time you do so, you select a different item.</p>"
        },
        "featType": {
            "value": "pfsboon"
        },
        "level": {
            "value": 0
        },
        "prerequisites": {
            "value": []
        },
        "rules": [],
        "source": {
            "value": ""
        },
        "traits": {
            "custom": "",
            "rarity": "common",
            "value": []
        }
    },
    "img": "systems/pf2e/icons/default-icons/mystery-man.webp",
    "name": "Naturalist",
    "type": "feat"
}
