{
    "_id": "bIXfNKFWduf8MH0f",
    "data": {
        "abilities": {
            "cha": {
                "mod": 1
            },
            "con": {
                "mod": 4
            },
            "dex": {
                "mod": 0
            },
            "int": {
                "mod": 0
            },
            "str": {
                "mod": 7
            },
            "wis": {
                "mod": 1
            }
        },
        "attributes": {
            "ac": {
                "details": "",
                "value": 25
            },
            "allSaves": {
                "value": ""
            },
            "hp": {
                "details": "",
                "max": 130,
                "temp": 0,
                "value": 130
            },
            "initiative": {
                "ability": "perception"
            },
            "perception": {
                "value": 12
            },
            "speed": {
                "otherSpeeds": [],
                "value": "25"
            }
        },
        "details": {
            "alignment": {
                "value": "CE"
            },
            "blurb": "",
            "creatureType": "Giant",
            "level": {
                "value": 7
            },
            "privateNotes": "",
            "publicNotes": "<p>In ogre society, might makes more than right-it makes the rules. The strongest or most violent ogre in a family is invariably that family's boss. Quick to hook fallen foes on their weapons, even other ogres fear the repercussions of displeasing an ogre boss. When an ogre boss barks out commands, the other members of the family move quickly to obey.</p>\n<hr />\n<p>Ogres embody brutish, amoral violence and cruelty. Standing 10 feet tall and densely muscled, ogres are as strong as they are cruel. Ogres are sadists that enjoy remorseless murder, torture, degradation, and mutilation in all of its forms. Although they prefer to vent their violent urges on smaller humanoids-the smaller and more beautiful, the better-ogres promise a horrifying fate for anyone unlucky enough to fall within their meaty grasp. But for all their creativity in developing methods of violence, ogres often remain too dim-witted to realize that their playthings lack an ogre's robust fortitude and high pain tolerance, so most captives die far sooner than the ogres might prefer. Such a fate is perhaps preferable however, as those who survive too long as ogres' playthings suffer lasting mental scars from the horrifying abuse. A captive able to keep their wits can sometimes trick the brutes by promising treasure, meatier captives, or other crude amusements, taking advantage of an ogre's limited intellect to engineer opportunities to escape.</p>\n<p>Ogres are social creatures only in the most debased sense. They gather together in groups called families, though members are not always related by blood. Ogres practice incest regularly, believing that it makes for stronger familial bonds, and most ogres are misshapen or mutated from generations of inbreeding. The most powerful ogre in any family is the \"boss\"-usually the family's patriarch or matriarch-while other ogres in the family learn to obey or risk being brutalized by the boss's loyal kin. Ogres lair in caves, crumbling ruins, or dilapidated shacks close enough to humanoid settlements or animal trails to make raiding easy. These lairs are filthy and frequently contain all-too-recognizable evidence of their depravity.</p>",
            "source": {
                "value": "Pathfinder Bestiary"
            }
        },
        "resources": {},
        "saves": {
            "fortitude": {
                "saveDetail": "",
                "value": 17
            },
            "reflex": {
                "saveDetail": "",
                "value": 12
            },
            "will": {
                "saveDetail": "",
                "value": 15
            }
        },
        "traits": {
            "ci": [],
            "di": {
                "custom": "",
                "value": []
            },
            "dr": [],
            "dv": [],
            "languages": {
                "custom": "",
                "selected": [],
                "value": [
                    "common",
                    "jotun"
                ]
            },
            "rarity": "common",
            "senses": {
                "value": "darkvision"
            },
            "size": {
                "value": "lg"
            },
            "traits": {
                "custom": "",
                "value": [
                    "giant",
                    "humanoid"
                ]
            }
        }
    },
    "img": "systems/pf2e/icons/default-icons/npc.svg",
    "items": [
        {
            "_id": "XIkVmeuS2gFeVNkU",
            "data": {
                "MAP": {
                    "value": ""
                },
                "baseItem": "javelin",
                "bonus": {
                    "value": 0
                },
                "bonusDamage": {
                    "value": 0
                },
                "category": "simple",
                "containerId": null,
                "damage": {
                    "damageType": "piercing",
                    "dice": 1,
                    "die": "d6",
                    "value": ""
                },
                "description": {
                    "value": "<p>This thin spear is well balanced for throwing but is not designed for melee use.</p>"
                },
                "equipped": {
                    "carryType": "held",
                    "handsHeld": 1,
                    "invested": null
                },
                "equippedBulk": {
                    "value": ""
                },
                "group": "dart",
                "hardness": 0,
                "hp": {
                    "brokenThreshold": 0,
                    "max": 0,
                    "value": 0
                },
                "level": {
                    "value": 0
                },
                "negateBulk": {
                    "value": "0"
                },
                "potencyRune": {
                    "value": 0
                },
                "preciousMaterial": {
                    "value": null
                },
                "preciousMaterialGrade": {
                    "value": null
                },
                "price": {
                    "value": {
                        "sp": 1
                    }
                },
                "property1": {
                    "critDamage": "",
                    "critDamageType": "",
                    "critDice": null,
                    "critDie": "",
                    "criticalConditionType": "",
                    "criticalConditionValue": null,
                    "damageType": "",
                    "dice": null,
                    "die": "",
                    "strikeConditionType": "",
                    "strikeConditionValue": null,
                    "value": ""
                },
                "propertyRune1": {
                    "value": null
                },
                "propertyRune2": {
                    "value": null
                },
                "propertyRune3": {
                    "value": null
                },
                "propertyRune4": {
                    "value": null
                },
                "quantity": 6,
                "range": 30,
                "reload": {
                    "value": "-"
                },
                "rules": [],
                "size": "lg",
                "slug": "javelin",
                "source": {
                    "value": "Pathfinder Core Rulebook"
                },
                "specific": {
                    "value": false
                },
                "splashDamage": {
                    "value": 0
                },
                "stackGroup": null,
                "strikingRune": {
                    "value": ""
                },
                "traits": {
                    "custom": "",
                    "rarity": "common",
                    "value": [
                        "thrown"
                    ]
                },
                "usage": {
                    "value": "held-in-one-hand"
                },
                "weight": {
                    "value": "L"
                }
            },
            "flags": {
                "core": {
                    "sourceId": "Compendium.pf2e.equipment-srd.JNt7GmLCCVz5BiEI"
                }
            },
            "img": "systems/pf2e/icons/equipment/weapons/javelin.webp",
            "name": "Javelin",
            "sort": 100000,
            "type": "weapon"
        },
        {
            "_id": "yfLFfSeyPeThnDPE",
            "data": {
                "MAP": {
                    "value": ""
                },
                "baseItem": "ogre-hook",
                "bonus": {
                    "value": 0
                },
                "bonusDamage": {
                    "value": 0
                },
                "category": "advanced",
                "containerId": null,
                "damage": {
                    "damageType": "piercing",
                    "dice": 1,
                    "die": "d10",
                    "value": ""
                },
                "description": {
                    "value": "<p>Ogres are known for using immense, curved picks called ogre hooks.</p>"
                },
                "equipped": {
                    "carryType": "held",
                    "handsHeld": 2,
                    "invested": null
                },
                "equippedBulk": {
                    "value": ""
                },
                "group": "pick",
                "hardness": 0,
                "hp": {
                    "brokenThreshold": 0,
                    "max": 0,
                    "value": 0
                },
                "level": {
                    "value": 0
                },
                "negateBulk": {
                    "value": "0"
                },
                "potencyRune": {
                    "value": 1
                },
                "preciousMaterial": {
                    "value": null
                },
                "preciousMaterialGrade": {
                    "value": null
                },
                "price": {
                    "value": {
                        "gp": 1
                    }
                },
                "property1": {
                    "critDamage": "",
                    "critDamageType": "",
                    "critDice": null,
                    "critDie": "",
                    "criticalConditionType": "",
                    "criticalConditionValue": null,
                    "damageType": "",
                    "dice": null,
                    "die": "",
                    "strikeConditionType": "",
                    "strikeConditionValue": null,
                    "value": ""
                },
                "propertyRune1": {
                    "value": null
                },
                "propertyRune2": {
                    "value": null
                },
                "propertyRune3": {
                    "value": null
                },
                "propertyRune4": {
                    "value": null
                },
                "quantity": 1,
                "range": null,
                "reload": {
                    "value": ""
                },
                "rules": [],
                "size": "lg",
                "slug": "ogre-hook",
                "source": {
                    "value": "Pathfinder Bestiary"
                },
                "specific": {
                    "value": false
                },
                "splashDamage": {
                    "value": null
                },
                "stackGroup": null,
                "strikingRune": {
                    "value": ""
                },
                "traits": {
                    "custom": "",
                    "rarity": "uncommon",
                    "value": [
                        "deadly-d10",
                        "trip"
                    ]
                },
                "usage": {
                    "value": "held-in-two-hands"
                },
                "weight": {
                    "value": "2"
                }
            },
            "flags": {
                "core": {
                    "sourceId": "Compendium.pf2e.equipment-srd.Oiq3QgLrM4i3W5Hg"
                }
            },
            "img": "systems/pf2e/icons/equipment/weapons/ogre-hook.webp",
            "name": "Ogre Hook",
            "sort": 200000,
            "type": "weapon"
        },
        {
            "_id": "XZMvMwDa5X7MP0wR",
            "data": {
                "armor": {
                    "value": 4
                },
                "baseItem": "breastplate",
                "category": "medium",
                "check": {
                    "value": -2
                },
                "containerId": null,
                "description": {
                    "value": "<p>Though referred to as a breastplate, this type of armor consists of several pieces of plate or half‑plate armor that protect the torso, chest, neck, and sometimes the hips and lower legs. It strategically grants some of the protection of plate while allowing greater flexibility and speed.</p>"
                },
                "dex": {
                    "value": 1
                },
                "equipped": {
                    "carryType": "worn",
                    "inSlot": true,
                    "invested": null
                },
                "equippedBulk": {
                    "value": "2"
                },
                "group": "plate",
                "hardness": 0,
                "hp": {
                    "brokenThreshold": 0,
                    "max": 0,
                    "value": 0
                },
                "level": {
                    "value": 0
                },
                "negateBulk": {
                    "value": "0"
                },
                "potency": {},
                "potencyRune": {
                    "value": 0
                },
                "preciousMaterial": {
                    "value": null
                },
                "preciousMaterialGrade": {
                    "value": null
                },
                "price": {
                    "value": {
                        "gp": 8
                    }
                },
                "propertyRune1": {
                    "value": ""
                },
                "propertyRune2": {
                    "value": ""
                },
                "propertyRune3": {
                    "value": ""
                },
                "propertyRune4": {
                    "value": ""
                },
                "quantity": 1,
                "resiliencyRune": {
                    "value": ""
                },
                "rules": [],
                "size": "lg",
                "slug": "breastplate",
                "source": {
                    "value": "Pathfinder Core Rulebook"
                },
                "speed": {
                    "value": -5
                },
                "stackGroup": null,
                "strength": {
                    "value": 16
                },
                "traits": {
                    "custom": "",
                    "rarity": "common",
                    "value": []
                },
                "usage": {
                    "value": "wornarmor"
                },
                "weight": {
                    "value": "3"
                }
            },
            "flags": {
                "core": {
                    "sourceId": "Compendium.pf2e.equipment-srd.r0ifJfoz8aqf0mwk"
                }
            },
            "img": "systems/pf2e/icons/equipment/armor/breastplate.webp",
            "name": "Breastplate",
            "sort": 300000,
            "type": "armor"
        },
        {
            "_id": "K8rZwgv45XvIe8vL",
            "data": {
                "attack": {
                    "value": ""
                },
                "attackEffects": {
                    "custom": "",
                    "value": []
                },
                "bonus": {
                    "value": 19
                },
                "damageRolls": {
                    "0w1r6x22k8ll60c2mbi3": {
                        "damage": "1d10+11",
                        "damageType": "piercing"
                    }
                },
                "description": {
                    "value": ""
                },
                "rules": [],
                "slug": null,
                "source": {
                    "value": ""
                },
                "traits": {
                    "custom": "",
                    "rarity": "common",
                    "value": [
                        "deadly-d10",
                        "reach-10",
                        "trip"
                    ]
                },
                "weaponType": {
                    "value": "melee"
                }
            },
            "img": "systems/pf2e/icons/default-icons/melee.svg",
            "name": "Ogre Hook",
            "sort": 400000,
            "type": "melee"
        },
        {
            "_id": "BXuDhj7X68wG6zma",
            "data": {
                "attack": {
                    "value": ""
                },
                "attackEffects": {
                    "custom": "",
                    "value": []
                },
                "bonus": {
                    "value": 12
                },
                "damageRolls": {
                    "mlovays3iivzqilwlq4u": {
                        "damage": "1d6+11",
                        "damageType": "piercing"
                    }
                },
                "description": {
                    "value": ""
                },
                "rules": [],
                "slug": null,
                "source": {
                    "value": ""
                },
                "traits": {
                    "custom": "",
                    "rarity": "common",
                    "value": [
                        "thrown-30"
                    ]
                },
                "weaponType": {
                    "value": "ranged"
                }
            },
            "img": "systems/pf2e/icons/default-icons/melee.svg",
            "name": "Javelin",
            "sort": 500000,
            "type": "melee"
        },
        {
            "_id": "6xrvE4IdhDnQNzDW",
            "data": {
                "actionCategory": {
                    "value": "interaction"
                },
                "actionType": {
                    "value": "passive"
                },
                "actions": {
                    "value": null
                },
                "description": {
                    "value": "<p>@Localize[PF2E.NPC.Abilities.Glossary.Darkvision]</p>"
                },
                "requirements": {
                    "value": ""
                },
                "rules": [],
                "slug": "darkvision",
                "source": {
                    "value": ""
                },
                "traits": {
                    "custom": "",
                    "rarity": "common",
                    "value": []
                },
                "trigger": {
                    "value": ""
                },
                "weapon": {
                    "value": ""
                }
            },
            "flags": {
                "core": {
                    "sourceId": "Compendium.pf2e.bestiary-ability-glossary-srd.qCCLZhnp2HhP3Ex6"
                }
            },
            "img": "systems/pf2e/icons/actions/Passive.webp",
            "name": "Darkvision",
            "sort": 600000,
            "type": "action"
        },
        {
            "_id": "RKyutDZZD9yAhzjX",
            "data": {
                "actionCategory": {
                    "value": "defensive"
                },
                "actionType": {
                    "value": "reaction"
                },
                "actions": {
                    "value": null
                },
                "description": {
                    "value": "<p>@Localize[PF2E.NPC.Abilities.Glossary.AttackOfOpportunity]</p>"
                },
                "requirements": {
                    "value": ""
                },
                "rules": [],
                "slug": "attack-of-opportunity",
                "source": {
                    "value": ""
                },
                "traits": {
                    "custom": "",
                    "rarity": "common",
                    "value": []
                },
                "trigger": {
                    "value": ""
                },
                "weapon": {
                    "value": ""
                }
            },
            "flags": {
                "core": {
                    "sourceId": "Compendium.pf2e.bestiary-ability-glossary-srd.hFtNbo1LKYCoDy2O"
                }
            },
            "img": "systems/pf2e/icons/actions/Reaction.webp",
            "name": "Attack of Opportunity",
            "sort": 700000,
            "type": "action"
        },
        {
            "_id": "KxNiF9bYl6kA6FRd",
            "data": {
                "actionCategory": {
                    "value": "offensive"
                },
                "actionType": {
                    "value": "action"
                },
                "actions": {
                    "value": 1
                },
                "description": {
                    "value": "<p>The ogre boss issues a command to hasten their fellows. Each ogre ally who hears and understands this command becomes @Compendium[pf2e.conditionitems.Quickened]{Quickened} until the end of that ally's next turn, but can use the extra action only to Step or Stride.</p>"
                },
                "requirements": {
                    "value": ""
                },
                "rules": [],
                "slug": null,
                "source": {
                    "value": ""
                },
                "traits": {
                    "custom": "",
                    "rarity": "common",
                    "value": [
                        "auditory",
                        "fear",
                        "linguistic"
                    ]
                },
                "trigger": {
                    "value": ""
                },
                "weapon": {
                    "value": ""
                }
            },
            "img": "systems/pf2e/icons/actions/OneAction.webp",
            "name": "Bellowing Command",
            "sort": 800000,
            "type": "action"
        },
        {
            "_id": "cg8c4dIdBFiff9le",
            "data": {
                "actionCategory": {
                    "value": "offensive"
                },
                "actionType": {
                    "value": "reaction"
                },
                "actions": {
                    "value": null
                },
                "description": {
                    "value": "<p><strong>Trigger</strong> The ogre boss successfully @Compendium[pf2e.actionspf2e.Trip]{Trips} a creature using an ogre hook.</p>\n<p><strong>Effect</strong> The ogre boss makes an ogre hook Strike against the creature they tripped.</p>"
                },
                "requirements": {
                    "value": ""
                },
                "rules": [],
                "slug": null,
                "source": {
                    "value": ""
                },
                "traits": {
                    "custom": "",
                    "rarity": "common",
                    "value": []
                },
                "trigger": {
                    "value": ""
                },
                "weapon": {
                    "value": ""
                }
            },
            "img": "systems/pf2e/icons/actions/Reaction.webp",
            "name": "Sweeping Hook",
            "sort": 900000,
            "type": "action"
        },
        {
            "_id": "2PLYP4StPCNy4CZA",
            "data": {
                "description": {
                    "value": ""
                },
                "mod": {
                    "value": 16
                },
                "proficient": {
                    "value": 0
                },
                "rules": [],
                "slug": null,
                "source": {
                    "value": ""
                },
                "traits": {
                    "custom": "",
                    "rarity": "common",
                    "value": []
                }
            },
            "img": "systems/pf2e/icons/default-icons/lore.svg",
            "name": "Athletics",
            "sort": 1000000,
            "type": "lore"
        },
        {
            "_id": "YpPD7hSfxECt6H0z",
            "data": {
                "description": {
                    "value": ""
                },
                "mod": {
                    "value": 16
                },
                "proficient": {
                    "value": 0
                },
                "rules": [],
                "slug": null,
                "source": {
                    "value": ""
                },
                "traits": {
                    "custom": "",
                    "rarity": "common",
                    "value": []
                }
            },
            "img": "systems/pf2e/icons/default-icons/lore.svg",
            "name": "Intimidation",
            "sort": 1100000,
            "type": "lore"
        },
        {
            "_id": "tsvspxxEOftsiBt9",
            "data": {
                "description": {
                    "value": ""
                },
                "mod": {
                    "value": 11
                },
                "proficient": {
                    "value": 0
                },
                "rules": [],
                "slug": null,
                "source": {
                    "value": ""
                },
                "traits": {
                    "custom": "",
                    "rarity": "common",
                    "value": []
                }
            },
            "img": "systems/pf2e/icons/default-icons/lore.svg",
            "name": "Stealth",
            "sort": 1200000,
            "type": "lore"
        }
    ],
    "name": "Ogre Boss",
    "token": {
        "disposition": -1,
        "height": 2,
        "img": "systems/pf2e/icons/default-icons/npc.svg",
        "name": "Ogre Boss",
        "width": 2
    },
    "type": "npc"
}
