{
    "_id": "tShwzNRi8eEqznAi",
    "data": {
        "attributes": {
            "ac": {
                "value": 24
            },
            "hardness": 12,
            "hasHealth": true,
            "hp": {
                "details": "",
                "max": 50,
                "temp": 0,
                "value": 50
            },
            "stealth": {
                "details": "<p>(trained)</p>",
                "value": 13
            }
        },
        "creatureType": "",
        "details": {
            "description": "<p>A tunnel through this steep barricade is rigged to collapse. If a kobold spends one action to throw a lever, the tunnel collapses on the next creature to pass through.</p>",
            "disable": "<p>Thievery DC 25 (trained) to carefully trigger the collapse without entering the tunnel.</p>",
            "isComplex": false,
            "level": {
                "value": 5
            },
            "reset": "",
            "routine": ""
        },
        "saves": {
            "fortitude": {
                "saveDetail": "",
                "value": 15
            },
            "reflex": {
                "saveDetail": "",
                "value": 9
            },
            "will": {
                "saveDetail": "",
                "value": 0
            }
        },
        "source": {
            "value": ""
        },
        "statusEffects": [],
        "traits": {
            "ci": [],
            "di": {
                "custom": "",
                "selected": {},
                "value": [
                    "precision",
                    "critical-hits",
                    "object-immunities"
                ]
            },
            "dr": [],
            "dv": [],
            "rarity": "common",
            "size": {
                "value": "med"
            },
            "traits": {
                "custom": "",
                "value": [
                    "mechanical",
                    "trap"
                ]
            }
        }
    },
    "flags": {},
    "img": "systems/pf2e/icons/default-icons/hazard.svg",
    "items": [
        {
            "_id": "HSuWYcm6naeQXv38",
            "data": {
                "actionCategory": {
                    "value": ""
                },
                "actionType": {
                    "value": "reaction"
                },
                "actions": {
                    "value": null
                },
                "description": {
                    "value": "<p><strong>Trigger</strong> A creature crawls into the tunnel in the collapsing barricade after the trap is activated with the lever</p>\n<p><strong>Effect</strong> The barricade collapses on the creature, who must attempt a @Check[type:reflex|dc:25|traits:damaging-effect] save.}.</p>\n<hr />\n<p><strong>Critical Success</strong> The creature takes no damage and escapes the barricade, emerging into a safe space on either side of it.</p>\n<p><strong>Success</strong> The creature takes [[/r {1d8+3}[bludgeoning]]]{1d8+3 bludgeoning damage} from collapsing debris and [[/r {1d8+3}[slashing]]]{1d8+3 slashing damage} from broken glass before emerging on the opposite side of the barricade from the one they entered.</p>\n<p><strong>Failure</strong> The creature takes [[/r {2d8+7}[bludgeoning]]]{2d8+7 bludgeoning damage} from collapsing debris and [[/r {2d8+7}[slashing]]]{2d8+7 slashing damage} from broken glass before emerging on the opposite side of the barricade from the one they entered.</p>\n<p><strong>Critical Failure</strong> As a failure, and the creature is @Compendium[pf2e.conditionitems.Immobilized]{Immobilized} beneath the barricade until they or another creature succeed at a @Check[type:athletics|dc:22|name:Escape Barricade] check to pull them free. They can still be targeted, touched, and otherwise interacted with by creatures on either side of the barrier.</p>"
                },
                "requirements": {
                    "value": ""
                },
                "rules": [],
                "slug": null,
                "source": {
                    "value": ""
                },
                "traits": {
                    "custom": "",
                    "rarity": "common",
                    "value": []
                },
                "trigger": {
                    "value": ""
                },
                "weapon": {
                    "value": ""
                }
            },
            "flags": {},
            "img": "systems/pf2e/icons/actions/Reaction.webp",
            "name": "Collapse",
            "sort": 100000,
            "type": "action"
        }
    ],
    "name": "Collapsing Barricade (3-4)",
    "token": {
        "disposition": 0,
        "height": 1,
        "img": "systems/pf2e/icons/default-icons/hazard.svg",
        "name": "Collapsing Barricade (1-2) (Copy)",
        "width": 1
    },
    "type": "hazard"
}
